<?xml version="1.0" encoding="UTF-8" standalone="no"?>
<svg
   id="Layer_1_Kopie"
   data-name="Layer 1 Kopie"
   viewBox="0 0 512 512"
   version="1.1"
   sodipodi:docname="rhm flame.svg"
   xmlns:inkscape="http://www.inkscape.org/namespaces/inkscape"
   xmlns:sodipodi="http://sodipodi.sourceforge.net/DTD/sodipodi-0.dtd"
   xmlns="http://www.w3.org/2000/svg"
   xmlns:svg="http://www.w3.org/2000/svg">
  <sodipodi:namedview
     id="namedview27"
     pagecolor="#ffffff"
     bordercolor="#000000"
     borderopacity="0.25"
     inkscape:showpageshadow="2"
     inkscape:pageopacity="0.0"
     inkscape:pagecheckerboard="0"
     inkscape:deskcolor="#d1d1d1" />
  <defs
     id="defs4">
    <style
       id="style2">.cls-1,.cls-2,.cls-3,.cls-5,.cls-8,.cls-9{fill:#e3051b;}.cls-1{opacity:0.45;}.cls-2{opacity:0.55;}.cls-3{opacity:0.8;}.cls-4{fill:#f39983;}.cls-5{opacity:0.65;}.cls-6{fill:#eb5a49;}.cls-7{fill:#f0836c;}.cls-8{opacity:0.9;}</style>
  </defs>
  <path
     class="cls-1"
     d="M411.66,247.83c-.35,0-.88.45-1.59,1.38-16.26,21.1-32.05,35.26-47.41,44.45-11.39,52.36-33.86,106.11-76,133.76-24.89,16.34-48.58,22.93-69.63,23.43-1.12,0-2.26.08-3.44.08-.94,0-1.9,0-2.88-.05,1.79.08,3.59.12,5.44.12a147.66,147.66,0,0,0,26.72-2.57c108.43-20,175.76-200.6,168.77-200.6"
     id="path6" />
  <path
     class="cls-2"
     d="M369.4,156.93c-.39,0-.77.67-1.13,2.07-19,73.31-54.85,97.38-93.09,108.05,10.18,13.92,20,27.41,26.94,41.49,2.06.1,4.13.16,6.21.16a102.84,102.84,0,0,0,54.33-15c15.12-69.59,10.67-136.73,6.74-136.73"
     id="path8" />
  <path
     class="cls-3"
     d="M362.66,293.66a102.84,102.84,0,0,1-54.33,15c-2.08,0-4.15-.06-6.21-.16,6.41,13,10.38,26.48,9.93,41.2-2.23,75.37-58.73,98.58-92.72,101-.74,0-1.51.09-2.28.12,21-.5,44.74-7.09,69.63-23.43,42.12-27.65,64.59-81.4,76-133.76"
     id="path10" />
  <path
     class="cls-4"
     d="M155.16,432.68a102.27,102.27,0,0,0,42.59,16.91,107.78,107.78,0,0,1-42.59-16.91"
     id="path12" />
  <path
     class="cls-5"
     d="M263,61C251.53,61,77.29,214.76,102.29,344.31c8.79,45.54,29.82,72.81,52.87,88.37a78.51,78.51,0,0,1-15.54-14.13c-11.84-14.44-19.88-39.25-11.72-67.38a81.15,81.15,0,0,1,6.25-15.86c5.44-10.88,13.46-22,24.71-33.09,28.43-28,73.84-23.3,116.32-35.17-35.72-48.8-76-102.57-12.59-203.33,1.15-1.84,1.22-2.72.36-2.72"
     id="path14" />
  <path
     class="cls-6"
     d="M134.15,335.31a80.52,80.52,0,0,0-6.25,15.86,93.5,93.5,0,0,1,6.25-15.86"
     id="path16" />
  <path
     class="cls-7"
     d="M197.75,449.59a99.6,99.6,0,0,0,13,1.29c-2.18-.1-4.3-.25-6.38-.46-2.24-.21-4.43-.49-6.6-.83"
     id="path18" />
  <path
     class="cls-6"
     d="M204.35,450.42c2.08.21,4.2.36,6.38.46,1,0,1.94.05,2.88.05,1.18,0,2.32,0,3.44-.08-.88,0-1.76,0-2.63,0-3.43,0-6.79-.17-10.07-.47"
     id="path20" />
  <path
     class="cls-8"
     d="M127.9,351.17c-8.16,28.13-.12,52.94,11.72,67.38a78.3,78.3,0,0,0,15.55,14.13,107.69,107.69,0,0,0,42.58,16.91q3.24.51,6.6.83c-46.46-4.7-68-36.69-76.22-56.61-3.48-8.41-5.15-25-.23-42.64m147.28-84.12c-42.48,11.87-87.89,7.22-116.32,35.17-11.25,11.06-19.27,22.21-24.71,33.09,7.88-15.09,21.56-29.47,44-38.84a68.34,68.34,0,0,1,26.73-5c15.92,0,32.49,4.32,49.71,8.62,15.31,3.84,31.14,7.68,47.52,8.49-6.95-14.08-16.76-27.57-26.94-41.49"
     id="path22" />
  <path
     class="cls-9"
     d="M204.88,291.43a68.36,68.36,0,0,0-26.72,5c-22.45,9.37-36.13,23.75-44,38.84a93.5,93.5,0,0,0-6.25,15.86c-4.92,17.68-3.24,34.23.22,42.64,8.25,19.92,29.77,51.91,76.23,56.61,3.28.3,6.64.47,10.07.47.87,0,1.75,0,2.63,0s1.54-.07,2.28-.12c34-2.41,90.49-25.62,92.72-101,.45-14.72-3.52-28.21-9.93-41.2-16.38-.81-32.21-4.65-47.52-8.49-17.22-4.31-33.79-8.62-49.72-8.62"
     id="path24" />
</svg>
