{
    "item": {
        "id": "1",
        "identifier": "sheep",
        "deactivated": false,
        "translated_title": "Sheep",
        "translated_abstract": "Your wooly new friend.",
        "translated_description": "May be a black sheep. It´s up to you!",
        "texts": [
            {
                "id": "1",
                "language": "en_GB",
                "title": "Sheep",
                "abstract": "Your wooly new friend.",
                "description": "May be a black sheep. It´s up to you!"
            },
            {
                "id": "2",
                "language": "de_DE",
                "title": "Schaf",
                "abstract": "Dein neuer wolliger Freund.",
                "description": "Könnte ein schwarzes Schaf sein, deine Entscheidung!"
            }
        ],
        "attributes": [
            {
                "attribute_id": "1",
                "identifier": "tags",
                "translated_title": "tags",
                "texts": [
                    {
                        "id": "1",
                        "language": "en_GB",
                        "title": "tags"
                    },
                    {
                        "id": "2",
                        "language": "de_DE",
                        "title": "Tags"
                    }
                ],
                "attributedatatype": "string",
                "values": [
                    {
                        "id": null,
                        "value": null,
                        "translated_value": "vegetarian",
                        "translations": [
                            {
                                "language": "en_GB",
                                "translation": "vegetarian"
                            },
                            {
                                "language": "de_DE",
                                "translation": "vegetarier"
                            }
                        ]
                    },
                    {
                        "id": null,
                        "value": null,
                        "translated_value": "edible",
                        "translations": [
                            {
                                "language": "en_GB",
                                "translation": "edible"
                            },
                            {
                                "language": "de_DE",
                                "translation": "essbar"
                            }
                        ]
                    }
                ]
            }
        ],
        "price": null,
        "prices": [
            {
                "id": "1",
                "price": "199.00",
                "priceNet": "167.22",
                "channel": "1",
                "amountfrom": "1"
            },
            {
                "id": "2",
                "price": "189.00",
                "priceNet": "158.82",
                "channel": "1",
                "amountfrom": "10"
            }
        ],
        "stock": [
            {
                "id": "1",
                "status": "available",
                "deliverytime": "+2 weeks",
                "channel": "1",
                "amount": null
            }
        ],
        "itemclassifications": [
            {
                "id": "1",
                "parent_id": 0,
                "identifier": "animal",
                "sequencenumber": 1,
                "translated_title": "animal",
                "translated_description": "all kinds of animals",
                "texts": [
                    {
                        "id": "1",
                        "language": "en_GB",
                        "title": "animal",
                        "description": "all kinds of animals"
                    },
                    {
                        "id": "2",
                        "language": "de_DE",
                        "title": "Tier",
                        "description": "alle möglichen Tiere"
                    }
                ]
            }
        ]
    },
    "selectableComponents": [
        {
            "id": "1",
            "identifier": "coat",
            "sequenceNumber": 1,
            "isMultiselect": false,
            "isMandatory": true,
            "title": "coat",
            "selectableOptions": [
                {
                    "id": "1",
                    "identifier": "coat_nature",
                    "title": "{coat_nature}",
                    "sequenceNumber": 3,
                    "deltaPrices": [
                        {
                            "id": 1,
                            "price": 4.88,
                            "priceNet": null,
                            "channel": 1
                        }
                    ]
                },
                {
                    "id": "2",
                    "identifier": "coat_white",
                    "title": "{coat_white}",
                    "sequenceNumber": 1,
                    "deltaPrices": [
                        {
                            "id": 2,
                            "price": -7.32,
                            "priceNet": null,
                            "channel": 1
                        }
                    ]
                },
                {
                    "id": "3",
                    "identifier": "coat_red",
                    "title": "{coat_red}",
                    "sequenceNumber": 2,
                    "deltaPrices": [
                        {
                            "id": 3,
                            "price": 9.76,
                            "priceNet": null,
                            "channel": 1
                        }
                    ]
                }
            ]
        },
        {
            "id": "2",
            "identifier": "face",
            "sequenceNumber": 2,
            "isMultiselect": false,
            "isMandatory": true,
            "title": "face",
            "selectableOptions": [
                {
                    "id": "4",
                    "identifier": "face_nature",
                    "title": "{face_nature}",
                    "deltaPrices": [
                        {
                            "id": 4,
                            "price": 12.2,
                            "priceNet": null,
                            "channel": 1
                        }
                    ]
                },
                {
                    "id": "5",
                    "identifier": "face_white",
                    "title": "{face_white}",
                    "deltaPrices": [
                        {
                            "id": 5,
                            "price": -14.64,
                            "priceNet": null,
                            "channel": 1
                        }
                    ]
                },
                {
                    "id": "6",
                    "identifier": "face_brown",
                    "title": "{face_brown}",
                    "deltaPrices": [
                        {
                            "id": 6,
                            "price": 17.08,
                            "priceNet": null,
                            "channel": 1
                        }
                    ]
                }
            ]
        },
        {
            "id": "3",
            "identifier": "legs",
            "sequenceNumber": 3,
            "title": "legs",
            "isMultiselect": false,
            "isMandatory": true,
            "selectableOptions": [
                {
                    "id": "7",
                    "identifier": "legs_nature",
                    "title": "{legs_nature}",
                    "deltaPrices": [
                        {
                            "id": 7,
                            "price": 19.52,
                            "priceNet": null,
                            "channel": 1
                        }
                    ]
                },
                {
                    "id": "8",
                    "identifier": "legs_white",
                    "title": "{legs_white}",
                    "deltaPrices": [
                        {
                            "id": 8,
                            "price": -21.96,
                            "priceNet": null,
                            "channel": 1
                        }
                    ]
                },
                {
                    "id": "9",
                    "identifier": "legs_brown",
                    "title": "{legs_brown}",
                    "deltaPrices": [
                        {
                            "id": 9,
                            "price": 24.4,
                            "priceNet": null,
                            "channel": 1
                        }
                    ]
                }
            ]
        },
        {
            "id": "4",
            "parent_id": 0,
            "identifier": "eyes",
            "sequenceNumber": 4,
            "title": "eyes",
            "isMultiselect": false,
            "isMandatory": false,
            "selectableOptions": [
                {
                    "id": "10",
                    "identifier": "eyes_yellow",
                    "title": "{eyes_yellow}",
                    "deltaPrices": [
                        {
                            "id": 10,
                            "price": 26.84,
                            "priceNet": null,
                            "channel": 1
                        }
                    ]
                },
                {
                    "id": "11",
                    "identifier": "eyes_blue",
                    "title": "{eyes_blue}"
                },
                {
                    "id": "12",
                    "identifier": "eyes_red",
                    "title": "{eyes_red}"
                }
            ]
        }
    ]
}
