[
    {
        "itemIdentifier": "t_shirt",
        "attributes": [
            {
                "attributeIdentifier": "tag",
                "attributeValues": [
                    {
                        "translations": [
                            {
                                "iso": "en_GB",
                                "translation": "Summer"
                            }
                        ],
                        "value": "summer"
                    },
                    {
                        "translations": [
                            {
                                "iso": "en_US",
                                "translation": "Summer2"
                            }
                        ],
                        "value": "summer"
                    }
                ],
                "texts": [
                    {
                        "iso": "en_GB",
                        "title": "Tag"
                    }
                ],
                "type": "string"
            }
        ],
        "children": [
            {
                "attributes": [
                    {
                        "attributeIdentifier": "tag",
                        "attributeValues": [
                            {
                                "translations": [
                                    {
                                        "iso": "en_GB",
                                        "translation": "Summer"
                                    },
                                    {
                                        "iso": "de_DE",
                                        "translation": "Sommer"
                                    }
                                ],
                                "value": "summer"
                            }
                        ],
                        "texts": [
                            {
                                "iso": "en_GB",
                                "title": "Tag"
                            }
                        ],
                        "type": "string"
                    }
                ],
                "childGroups": [
                    {
                        "group": {
                            "groupIdentifier": "color",
                            "texts": [
                                {
                                    "iso": "en_GB",
                                    "title": "Color"
                                }
                            ]
                        },
                        "groupValue": {
                            "groupValueIdentifier": "red",
                            "texts": [
                                {
                                    "iso": "en_GB",
                                    "title": "Red"
                                }
                            ]
                        }
                    },
                    {
                        "group": {
                            "groupIdentifier": "size",
                            "texts": [
                                {
                                    "iso": "en_GB",
                                    "title": "Size"
                                }
                            ]
                        },
                        "groupValue": {
                            "groupValueIdentifier": "s",
                            "texts": [
                                {
                                    "iso": "en_GB",
                                    "title": "S"
                                }
                            ]
                        }
                    }
                ],
                "images": {
                    "detailImage": "http://localhost/tests/sample-1.jpg",
                    "thumbnail": "http://localhost/tests/sample-1.jpg"
                },
                "minimumOrderAmount": 1,
                "itemIdentifier": "t_shirt_red_s",
                "prices": [
                    {
                        "bulkPrices": [
                            {
                                "itemAmountFrom": 1,
                                "price": 19.9,
                                "priceNet": 16.7
                            }
                        ],
                        "channelIdentifier": "de_eur"
                    }
                ],
                "texts": [
                    {
                        "description": "",
                        "iso": "en_GB",
                        "title": "T-shirt, red, s"
                    }
                ]
            }
        ],
        "designAreas": [
            {
                "customData": "",
                "designAreaIdentifier": "front_top",
                "designProductionMethods": [
                    {
                        "designProductionMethodIdentifier": "offset_print",
                        "heightMillimeter": 30,
                        "prices": [],
                        "widthMillimeter": 320
                    }
                ],
                "heightMillimeter": 30,
                "texts": [
                    {
                        "iso": "de_DE",
                        "title": "front top"
                    }
                ],
                "visualData": [
                    {
                        "customData": "[]",
                        "designViewIdentifier": "front",
                        "default": true,
                        "heightPixels": 20,
                        "viewThumbnails": [
                            {
                                "itemIdentifier": "t_shirt_red_s",
                                "viewThumbnailURL": "http://localhost/tests/sample-1.jpg"
                            }
                        ],
                        "mediaURLs": [
                            {
                                "itemIdentifier": "t_shirt_red_s",
                                "mediaURL": "http://localhost/tests/sample-1.jpg"
                            }
                        ],
                        "position": {
                            "x": 400,
                            "y": 200
                        },
                        "texts": [
                            {
                                "iso": "en_GB",
                                "title": "Front view"
                            }
                        ],
                        "widthPixels": 200
                    },
                    {
                        "customData": "[]",
                        "designViewIdentifier": "side",
                        "default": false,
                        "heightPixels": 20,
                        "viewThumbnails": [
                            {
                                "itemIdentifier": "t_shirt_red_s",
                                "viewThumbnailURL": "http://localhost/tests/sample-1.jpg"
                            }
                        ],
                        "mediaURLs": [
                            {
                                "itemIdentifier": "t_shirt_red_s",
                                "mediaURL": "http://localhost/tests/sample-1.jpg"
                            }
                        ],
                        "position": {
                            "x": 300,
                            "y": 300
                        },
                        "texts": [
                            {
                                "iso": "en_GB",
                                "title": "Side view"
                            }
                        ],
                        "widthPixels": 200
                    }
                ],
                "visualizationBackgroundColors": [
                    {
                        "itemIdentifier": "t_shirt_red_s",
                        "color": "#FF0000"
                    }
                ],
                "widthMillimeter": 300
            }
        ],
        "images": {
            "detailImage": "http://localhost/tests/sample-1.jpg",
            "thumbnail": "http://localhost/tests/sample-1.jpg"
        },
        "minimumOrderAmount": 22,
        "prices": [
            {
                "bulkPrices": [
                    {
                        "itemAmountFrom": 1,
                        "price": 19.9,
                        "priceNet": 16.7
                    }
                ],
                "channelIdentifier": "de_eur"
            },
            {
                "bulkPrices": [
                    {
                        "itemAmountFrom": 10,
                        "price": 9.9,
                        "priceNet": 6.7
                    }
                ],
                "channelIdentifier": "de_eur"
            }
        ],
        "texts": [
            {
                "description": "",
                "iso": "en_GB",
                "title": "T-shirt"
            }
        ]
    }
]
