{
    "statusCode": 200,
    "headers": {
        "content-type": [
            "application\/json"
        ]
    },
    "body": {
        "metadata": {
            "totalcount": "1"
        },
        "data": [
            {
                "id": "3001",
                "identifier": "option_pool_test",
                "options": [
                    {
                        "id": 3001,
                        "identifier": "option_pool_test_option_1",
                        "configurable": null,
                        "deactivated": false,
                        "translated_title": "{option_pool_test_option_1}",
                        "translated_abstract": "",
                        "translated_description": "",
                        "texts": null,
                        "attributes": null,
                        "prices": null,
                        "sequencenumber": 0,
                        "stock": null,
                        "visualizationdata": null,
                        "thumbnail": null,
                        "hasTextinput": false,
                        "inputValidationType": null,
                        "inputText": null
                    },
                    {
                        "id": 3002,
                        "identifier": "option_pool_test_option_2",
                        "configurable": null,
                        "deactivated": false,
                        "translated_title": "{option_pool_test_option_2}",
                        "translated_abstract": "",
                        "translated_description": "",
                        "texts": null,
                        "attributes": null,
                        "prices": null,
                        "sequencenumber": 0,
                        "stock": null,
                        "visualizationdata": null,
                        "thumbnail": null,
                        "hasTextinput": false,
                        "inputValidationType": null,
                        "inputText": null
                    }
                ],
                "texts": [
                    {
                        "id": "3001",
                        "language": "de_DE",
                        "title": "titleDE",
                        "description": "descrDE"
                    },
                    {
                        "id": "3002",
                        "language": "de_DE",
                        "title": "titleEN",
                        "description": "descrEN"
                    }
                ]
            }
        ]
    }
}