{
    "id": 2,
    "identifier": "rhm",
    "email": null,
    "theme": null,
    "texts": [
        {
            "id": 1,
            "termsAndConditionsLink": "this is a link",
            "channel": {
                "id": 2,
                "identifier": "rhm_de_eur",
                "currency": {
                    "id": 1,
                    "iso": "eur",
                    "symbol": "\u20ac"
                },
                "settings": [],
                "globalDiscountPercentage": 20.00000
            },
            "language": "en_GB"
        },
        {
            "id": 2,
            "termsAndConditionsLink": "this is a link",
            "channel": {
                "id": 2,
                "identifier": "rhm_de_eur",
                "currency": {
                    "id": 1,
                    "iso": "eur",
                    "symbol": "\u20ac"
                },
                "settings": [],
                "globalDiscountPercentage": 20.00000
            },
            "language": "de_DE"
        }
    ],
    "channels": [
        {
            "id": 2,
            "identifier": "rhm_de_eur",
            "currency": {
                "id": 1,
                "iso": "eur",
                "symbol": "\u20ac"
            },
            "settings": [],
            "globalDiscountPercentage": 20.00000
        }
    ],
    "users": [
        {
            "id": "2",
            "username": "rhm",
            "firstname": null,
            "lastname": null,
            "email": "rhm@redhotmagma.de",
            "password": "",
            "active": true,
            "roles": [
                {
                    "id": "2",
                    "name": "client",
                    "role": null,
                    "credentials": null
                }
            ]
        }
    ],
    "callToAction": "addToCart"
}
