{
  "identifier": "someone_else_2",
  "email": null,
  "theme": null,
  "channels": [],
  "users": [
    {
      "email": "client1@configuratorware.de",
      "password": "somepassword"
    },
    {
      "email": "client2@configuratorware.de",
      "password": "somepassword"
    }
  ],
  "callToAction": "none",
  "customCss": "{\n    font-size: 24px;\n}"
}
