{
    "configuration": {
        "shareUrl": null,
        "name": null,
        "item": {
            "identifier": "hoodie",
            "configurationModes": [
                {
                    "identifier": "creator",
                    "itemStatus": {
                        "identifier": "not_available",
                        "item_available": false
                    }
                },
                {
                    "identifier": "designer",
                    "itemStatus": {
                        "identifier": "available",
                        "item_available": true
                    }
                }
            ],
            "title": "Hoodie",
            "abstract": "In schwarz oder grau.",
            "description": "In S, M, L, XL",
            "attributes": [],
            "price": 69,
            "netPrice": null,
            "stock": [
                {
                    "id": 2,
                    "status": null,
                    "deliverytime": "1",
                    "channel": "1",
                    "amount": null
                }
            ],
            "itemclassifications": []
        },
        "optionclassifications": [],
        "visualizationData": [],
        "designdata": {
            "front": {
                "canvasData": {
                    "objects": [
                        {
                            "type": "Text",
                            "isBulkName":  true,
                            "x": 58.31648936170213,
                            "y": 125.21542553191492,
                            "rotation": 0,
                            "scaling": 1,
                            "content": "<span style=\"font-size: 16px\">My Text</span>"
                        },
                        {
                            "type": "Image",
                            "x": 59.5,
                            "y": 89,
                            "rotation": 0,
                            "scaling": 1,
                            "src": "data:image/png;base64,iVBORw0KGgoAAAANSUhEUgAAAAEAAAABCAIAAACQd1PeAAAABmJLR0QA/wD/AP+gvaeTAAAACXBIWXMAAAsTAAALEwEAmpwYAAAAB3RJTUUH4wIEDA4JR+Nr9QAAAB1pVFh0Q29tbWVudAAAAAAAQ3JlYXRlZCB3aXRoIEdJTVBkLmUHAAAADElEQVQI12P4//8/AAX+Av7czFnnAAAAAElFTkSuQmCC"
                        }
                    ]
                },
                "designProductionMethodIdentifier": "print",
                "colorAmount": 1
            },
            "sleeve": {
                "canvasData": {
                    "objects": [
                        {
                            "type": "Text",
                            "x": 58.31648936170213,
                            "y": 125.21542553191492,
                            "rotation": 0,
                            "scaling": 1,
                            "content": "<span style=\"font-size: 16px\">My Text</span>"
                        },
                        {
                            "type": "Image",
                            "x": 59.5,
                            "y": 89,
                            "rotation": 0,
                            "scaling": 1,
                            "src": "data:image/png;base64,iVBORw0KGgoAAAANSUhEUgAAAAEAAAABCAIAAACQd1PeAAAABmJLR0QA/wD/AP+gvaeTAAAACXBIWXMAAAsTAAALEwEAmpwYAAAAB3RJTUUH4wIEDA4JR+Nr9QAAAB1pVFh0Q29tbWVudAAAAAAAQ3JlYXRlZCB3aXRoIEdJTVBkLmUHAAAADElEQVQI12P4//8/AAX+Av7czFnnAAAAAElFTkSuQmCC"
                        }
                    ]
                },
                "designProductionMethodIdentifier": "print",
                "colorAmount": 4
            }
        },
        "information": {
            "channelSettings": {
                "currencySymbol": "€",
                "channel": "_default"
            },
            "languageSettings": {
                "id": "2",
                "iso": "de_DE",
                "dateformat": "d.m.Y",
                "pricedecimals": 2,
                "decimalpoint": ",",
                "thousandsseparator": ".",
                "currencysymbolposition": "right",
                "user_created_id": "0"
            },
            "settings": {
                "visualizationcomponent": "layer",
                "visualizationsettings": null,
                "calculationmethod": "sumofall",
                "shareurl": null,
                "defaultmailsenderaddress": null,
                "customsettings": null
            },
            "codeSnippets": [
                {
                    "code": "<!-- This is a code snippet -->"
                }
            ],
            "validation_result": {
                "success": true,
                "data": []
            }
        },
        "customdata": {
            "selectedAmounts": {
                "hoodie": 10
            },
            "userSelectedCalculation": {
                "global_gift_packaging": false
            }
        },
        "partslisthash": null,
        "previewImageURL": "/images/configurations/U54S0KV83.png",
        "configurationType": "defaultoptions",
        "date_created": {
            "date": "2019-01-31 16:32:53.000000",
            "timezone_type": 3,
            "timezone": "Europe/Paris"
        },
        "images": [],
        "screenshots": null
    },
    "configurationtype": "user"
}