{
  "total": 316.74,
  "totalFormatted": "\u20ac 316.74",
  "netTotal": 270.92,
  "netTotalFormatted": "\u20ac 270.92",
  "netTotalFromGrossTotal": 266.1680672269,
  "netTotalFromGrossTotalFormatted": "\u20ac 266.17",
  "vatRate": 19,
  "positions": [
    {
      "title": "{hoodie}",
      "calculationTypeIdentifier": "item",
      "itemAmountDependent": true,
      "declareSeparately": true,
      "selectableByUser": false,
      "selected": true,
      "price": 99.9,
      "priceFormatted": "\u20ac 99.90",
      "priceNet": 83.9,
      "priceNetFormatted": "\u20ac 83.90"
    },
    {
      "title": "",
      "calculationTypeIdentifier": "setup_cost",
      "itemAmountDependent": false,
      "declareSeparately": false,
      "selectableByUser": false,
      "selected": true,
      "price": 95,
      "priceFormatted": "\u20ac 95.00",
      "priceNet": 79.85,
      "priceNetFormatted": "\u20ac 79.85"
    },
    {
      "title": "",
      "calculationTypeIdentifier": "production_cost",
      "itemAmountDependent": true,
      "declareSeparately": false,
      "selectableByUser": false,
      "selected": true,
      "price": 49.5,
      "priceFormatted": "\u20ac 49.50",
      "priceNet": 41.5,
      "priceNetFormatted": "\u20ac 41.50"
    },
    {
      "title": "Gift packaging",
      "calculationTypeIdentifier": "global_gift_packaging",
      "itemAmountDependent": true,
      "declareSeparately": false,
      "selectableByUser": true,
      "selected": true,
      "price": 19.9,
      "priceFormatted": "\u20ac 19.90",
      "priceNet": 16.7,
      "priceNetFormatted": "\u20ac 16.70"
    },
    {
      "title": "Logo cost",
      "calculationTypeIdentifier": "global_logo_cost",
      "itemAmountDependent": false,
      "declareSeparately": false,
      "selectableByUser": true,
      "selected": true,
      "price": 19,
      "priceFormatted": "\u20ac 19.00",
      "priceNet": 15.97,
      "priceNetFormatted": "\u20ac 15.97"
    },
    {
      "calculationTypeIdentifier": "global_user_image",
      "declareSeparately": false,
      "itemAmountDependent": false,
      "price": 33.44,
      "priceFormatted": "€ 33.44",
      "priceNet": 33,
      "priceNetFormatted": "€ 33.00",
      "selectableByUser": false,
      "selected": true,
      "title": ""
    }
  ],
  "bulkSavings": [
    {
      "itemIdentifier": "hoodie",
      "itemTitle": "{hoodie}",
      "savingsBulkAmount": 90,
      "savingAmount": 46
    }
  ]
}