{
    "statusCode": 200,
    "headers": {
        "content-type": [
            "application\/json"
        ]
    },
    "body": {
        "metadata": {
            "totalcount": "2"
        },
        "data": [
            {
                "id": 1000001,
                "identifier": "configurationvariant",
                "items": [
                    {
                        "id": 1000001,
                        "identifier": "mary-kate",
                        "deactivated": false,
                        "accumulateAmounts": true,
                        "translated_title": "{mary-kate}",
                        "translated_abstract": "",
                        "translated_description": "",
                        "texts": [],
                        "attributes": [],
                        "price": null,
                        "prices": [],
                        "stock": [],
                        "itemclassifications": [],
                        "children": [],
                        "minimumOrderAmount": 1,
                        "configurationMode": "creator",
                        "itemStatus": {
                            "id": 2,
                            "identifier": "available",
                            "item_available": true
                        },
                        "visualizationMode": {
                            "id": 4,
                            "identifier": "3dVariant",
                            "validForConfigurationModes": [
                                "designer"
                            ],
                            "label": "3d"
                        },
                        "callToAction": null,
                        "overwriteComponentOrder": false,
                        "overrideOptionOrder": false
                    },
                    {
                        "id": 1000002,
                        "identifier": "ashley",
                        "deactivated": false,
                        "accumulateAmounts": true,
                        "translated_title": "{ashley}",
                        "translated_abstract": "",
                        "translated_description": "",
                        "texts": [],
                        "attributes": [],
                        "price": null,
                        "prices": [],
                        "stock": [],
                        "itemclassifications": [],
                        "children": [],
                        "minimumOrderAmount": 1,
                        "configurationMode": "creator",
                        "itemStatus": {
                            "id": 2,
                            "identifier": "available",
                            "item_available": true
                        },
                        "visualizationMode": {
                            "id": 4,
                            "identifier": "3dVariant",
                            "validForConfigurationModes": [
                                "designer"
                            ],
                            "label": "3d"
                        },
                        "callToAction": null,
                        "overwriteComponentOrder": false,
                        "overrideOptionOrder": false
                    }
                ]
            },
            {
                "id": 4001,
                "identifier": "configurationvariant_test_1",
                "items": [
                    {
                        "id": 4001,
                        "identifier": "item_group_item_1",
                        "deactivated": false,
                        "accumulateAmounts": true,
                        "translated_title": "{item_group_item_1}",
                        "translated_abstract": "",
                        "translated_description": "",
                        "texts": [],
                        "attributes": [],
                        "price": null,
                        "prices": [],
                        "stock": [],
                        "itemclassifications": [],
                        "children": [],
                        "minimumOrderAmount": 1,
                        "configurationMode": "creator",
                        "itemStatus": {
                            "id": 2,
                            "identifier": "available",
                            "item_available": true
                        },
                        "visualizationMode": {
                            "id": 4,
                            "identifier": "3dVariant",
                            "validForConfigurationModes": [
                                "designer"
                            ],
                            "label": "3d"
                        },
                        "callToAction": null,
                        "overwriteComponentOrder": false,
                        "overrideOptionOrder": false
                    },
                    {
                        "id": 4002,
                        "identifier": "item_group_item_2",
                        "deactivated": false,
                        "accumulateAmounts": true,
                        "translated_title": "{item_group_item_2}",
                        "translated_abstract": "",
                        "translated_description": "",
                        "texts": [],
                        "attributes": [],
                        "price": null,
                        "prices": [],
                        "stock": [],
                        "itemclassifications": [],
                        "children": [],
                        "minimumOrderAmount": 1,
                        "configurationMode": "creator",
                        "itemStatus": {
                            "id": 2,
                            "identifier": "available",
                            "item_available": true
                        },
                        "visualizationMode": {
                            "id": 4,
                            "identifier": "3dVariant",
                            "validForConfigurationModes": [
                                "designer"
                            ],
                            "label": "3d"
                        },
                        "callToAction": null,
                        "overwriteComponentOrder": false,
                        "overrideOptionOrder": false
                    }
                ]
            }
        ]
    }
}
