[
  {
    "itemIdentifier": "sheep",
    "visualizationModeIdentifier": "3dScene",
    "configurationMode": "creator",
    "itemStatusIdentifier": "available",
    "minimumOrderAmount": 0,
    "accumulateAmounts": true,
    "texts": [
      {
        "iso": "de_DE",
        "title": "Schaf",
        "description": "Könnte ein schwarzes Schaf sein, deine Entscheidung!",
        "abstract": "Dein neuer wolliger Freund."
      },
      {
        "iso": "en_GB",
        "title": "Sheep",
        "description": "May be a black sheep. It´s up to you!",
        "abstract": "Your wooly new friend."
      }
    ],
    "prices": [
      {
        "channelIdentifier": "_default",
        "bulkPrices": [
          {
            "itemAmountFrom": 1,
            "price": 199,
            "priceNet": 167.22
          },
          {
            "itemAmountFrom": 10,
            "price": 189,
            "priceNet": 158.82
          }
        ]
      }
    ],
    "attributes": [
      {
        "attributeIdentifier": "tags",
        "type": "string",
        "texts": [
          {
            "iso": "de_DE",
            "title": "Tags",
            "description": "",
            "abstract": ""
          },
          {
            "iso": "en_GB",
            "title": "tags",
            "description": "",
            "abstract": ""
          }
        ],
        "attributeValues": [
          {
            "value": "vegetarian",
            "translations": [
              {
                "translation": "vegetarian",
                "iso": "en_GB"
              },
              {
                "translation": "vegetarier",
                "iso": "de_DE"
              }
            ]
          },
          {
            "value": "edible",
            "translations": [
              {
                "translation": "edible",
                "iso": "en_GB"
              },
              {
                "translation": "essbar",
                "iso": "de_DE"
              }
            ]
          }
        ]
      }
    ],
    "itemClassifications": [
      {
        "identifier": "animal",
        "texts": [
          {
            "iso": "en_GB",
            "title": "animal",
            "description": "all kinds of animals",
            "abstract": ""
          },
          {
            "iso": "de_DE",
            "title": "Tier",
            "description": "alle möglichen Tiere",
            "abstract": ""
          }
        ]
      }
    ],
    "components": [
      {
        "componentIdentifier": "coat",
        "hiddenInFrontend": 0,
        "texts": [
          {
            "iso": "en_GB",
            "title": "coat",
            "description": "",
            "abstract": ""
          },
          {
            "iso": "de_DE",
            "title": "Fell",
            "description": "",
            "abstract": ""
          }
        ],
        "sequencenumber": 1,
        "attributes": [],
        "isMultiselect": false,
        "options": [
          {
            "optionIdentifier": "coat_nature",
            "amountIsSelectable": false,
            "sequencenumber": 0,
            "images": null,
            "texts": [],
            "prices": [
              {
                "channelIdentifier": "_default",
                "bulkPrices": [
                  {
                    "itemAmountFrom": 1,
                    "price": 12.45,
                    "priceNet": 10.46
                  }
                ]
              }
            ],
            "deltaPrices": [
              {
                "channelIdentifier": "_default",
                "prices": {
                  "price": {
                    "price": 4.88,
                    "priceNet": 0
                  }
                }
              }
            ],
            "attributes": [],
            "hasTextinput": false,
            "inputValidationType": ""
          },
          {
            "optionIdentifier": "coat_white",
            "amountIsSelectable": false,
            "sequencenumber": 0,
            "images": null,
            "texts": [],
            "prices": [
              {
                "channelIdentifier": "_default",
                "bulkPrices": [
                  {
                    "itemAmountFrom": 1,
                    "price": 13.45,
                    "priceNet": 11.3
                  }
                ]
              }
            ],
            "deltaPrices": [
              {
                "channelIdentifier": "_default",
                "prices": {
                  "price": {
                    "price": -7.32,
                    "priceNet": 0
                  }
                }
              }
            ],
            "attributes": [],
            "hasTextinput": true,
            "inputValidationType": ""
          },
          {
            "optionIdentifier": "coat_red",
            "amountIsSelectable": false,
            "sequencenumber": 0,
            "images": null,
            "texts": [],
            "prices": [
              {
                "channelIdentifier": "_default",
                "bulkPrices": [
                  {
                    "itemAmountFrom": 1,
                    "price": 14.45,
                    "priceNet": 12.14
                  }
                ]
              }
            ],
            "deltaPrices": [
              {
                "channelIdentifier": "_default",
                "prices": {
                  "price": {
                    "price": 9.76,
                    "priceNet": 0
                  }
                }
              }
            ],
            "attributes": [],
            "hasTextinput": false,
            "inputValidationType": ""
          }
        ],
        "images": null,
        "minamount": 0,
        "maxamount": 0,
        "isMandatory": true,
        "defaultSelections": [
          {
            "optionIdentifier": "coat_nature",
            "amount": 1
          }
        ]
      },
      {
        "componentIdentifier": "face",
        "hiddenInFrontend": 0,
        "texts": [
          {
            "iso": "en_GB",
            "title": "face",
            "description": "",
            "abstract": ""
          },
          {
            "iso": "de_DE",
            "title": "Gesicht",
            "description": "",
            "abstract": ""
          }
        ],
        "sequencenumber": 2,
        "attributes": [],
        "isMultiselect": false,
        "options": [
          {
            "optionIdentifier": "face_nature",
            "amountIsSelectable": false,
            "sequencenumber": 0,
            "images": null,
            "texts": [],
            "prices": [
              {
                "channelIdentifier": "_default",
                "bulkPrices": [
                  {
                    "itemAmountFrom": 1,
                    "price": 15.45,
                    "priceNet": 12.98
                  }
                ]
              }
            ],
            "deltaPrices": [
              {
                "channelIdentifier": "_default",
                "prices": {
                  "price": {
                    "price": 12.2,
                    "priceNet": 0
                  }
                }
              }
            ],
            "attributes": [],
            "hasTextinput": false,
            "inputValidationType": ""
          },
          {
            "optionIdentifier": "face_white",
            "amountIsSelectable": false,
            "sequencenumber": 0,
            "images": null,
            "texts": [],
            "prices": [
              {
                "channelIdentifier": "_default",
                "bulkPrices": [
                  {
                    "itemAmountFrom": 1,
                    "price": 16.45,
                    "priceNet": 13.82
                  }
                ]
              }
            ],
            "deltaPrices": [
              {
                "channelIdentifier": "_default",
                "prices": {
                  "price": {
                    "price": -14.64,
                    "priceNet": 0
                  }
                }
              }
            ],
            "attributes": [],
            "hasTextinput": false,
            "inputValidationType": ""
          },
          {
            "optionIdentifier": "face_brown",
            "amountIsSelectable": false,
            "sequencenumber": 0,
            "images": null,
            "texts": [],
            "prices": [
              {
                "channelIdentifier": "_default",
                "bulkPrices": [
                  {
                    "itemAmountFrom": 1,
                    "price": 17.45,
                    "priceNet": 14.66
                  }
                ]
              }
            ],
            "deltaPrices": [
              {
                "channelIdentifier": "_default",
                "prices": {
                  "price": {
                    "price": 17.08,
                    "priceNet": 0
                  }
                }
              }
            ],
            "attributes": [],
            "hasTextinput": false,
            "inputValidationType": ""
          }
        ],
        "images": null,
        "minamount": 0,
        "maxamount": 0,
        "isMandatory": true,
        "defaultSelections": [
          {
            "optionIdentifier": "face_nature",
            "amount": 1
          }
        ]
      },
      {
        "componentIdentifier": "legs",
        "hiddenInFrontend": 0,
        "texts": [
          {
            "iso": "en_GB",
            "title": "legs",
            "description": "",
            "abstract": ""
          },
          {
            "iso": "de_DE",
            "title": "Beine",
            "description": "",
            "abstract": ""
          }
        ],
        "sequencenumber": 3,
        "attributes": [],
        "isMultiselect": false,
        "options": [
          {
            "optionIdentifier": "legs_nature",
            "amountIsSelectable": false,
            "sequencenumber": 0,
            "images": null,
            "texts": [],
            "prices": [
              {
                "channelIdentifier": "_default",
                "bulkPrices": [
                  {
                    "itemAmountFrom": 1,
                    "price": 18.45,
                    "priceNet": 15.5
                  }
                ]
              }
            ],
            "deltaPrices": [
              {
                "channelIdentifier": "_default",
                "prices": {
                  "price": {
                    "price": 19.52,
                    "priceNet": 0
                  }
                }
              }
            ],
            "attributes": [],
            "hasTextinput": false,
            "inputValidationType": ""
          },
          {
            "optionIdentifier": "legs_white",
            "amountIsSelectable": false,
            "sequencenumber": 0,
            "images": null,
            "texts": [],
            "prices": [
              {
                "channelIdentifier": "_default",
                "bulkPrices": [
                  {
                    "itemAmountFrom": 1,
                    "price": 19.45,
                    "priceNet": 16.34
                  }
                ]
              }
            ],
            "deltaPrices": [
              {
                "channelIdentifier": "_default",
                "prices": {
                  "price": {
                    "price": -21.96,
                    "priceNet": 0
                  }
                }
              }
            ],
            "attributes": [],
            "hasTextinput": false,
            "inputValidationType": ""
          },
          {
            "optionIdentifier": "legs_brown",
            "amountIsSelectable": false,
            "sequencenumber": 0,
            "images": null,
            "texts": [],
            "prices": [
              {
                "channelIdentifier": "_default",
                "bulkPrices": [
                  {
                    "itemAmountFrom": 1,
                    "price": 21.45,
                    "priceNet": 18.03
                  }
                ]
              }
            ],
            "deltaPrices": [
              {
                "channelIdentifier": "_default",
                "prices": {
                  "price": {
                    "price": 24.4,
                    "priceNet": 0
                  }
                }
              }
            ],
            "attributes": [],
            "hasTextinput": false,
            "inputValidationType": ""
          }
        ],
        "images": null,
        "minamount": 0,
        "maxamount": 0,
        "isMandatory": true,
        "defaultSelections": [
          {
            "optionIdentifier": "legs_nature",
            "amount": 1
          }
        ]
      },
      {
        "componentIdentifier": "eyes",
        "hiddenInFrontend": 0,
        "texts": [
          {
            "iso": "en_GB",
            "title": "eyes",
            "description": "",
            "abstract": ""
          },
          {
            "iso": "de_DE",
            "title": "Augen",
            "description": "",
            "abstract": ""
          }
        ],
        "sequencenumber": 4,
        "attributes": [],
        "isMultiselect": false,
        "options": [
          {
            "optionIdentifier": "eyes_yellow",
            "amountIsSelectable": false,
            "sequencenumber": 0,
            "images": null,
            "texts": [],
            "prices": [
              {
                "channelIdentifier": "_default",
                "bulkPrices": [
                  {
                    "itemAmountFrom": 1,
                    "price": 22.45,
                    "priceNet": 18.87
                  }
                ]
              }
            ],
            "deltaPrices": [
              {
                "channelIdentifier": "_default",
                "prices": {
                  "price": {
                    "price": 26.84,
                    "priceNet": 0
                  }
                }
              }
            ],
            "attributes": [],
            "hasTextinput": false,
            "inputValidationType": ""
          },
          {
            "optionIdentifier": "eyes_blue",
            "amountIsSelectable": false,
            "sequencenumber": 0,
            "images": null,
            "texts": [],
            "prices": [
              {
                "channelIdentifier": "_default",
                "bulkPrices": [
                  {
                    "itemAmountFrom": 1,
                    "price": 23.45,
                    "priceNet": 19.71
                  }
                ]
              }
            ],
            "deltaPrices": [
              {
                "channelIdentifier": "_default",
                "prices": {
                  "price": {
                    "price": -29.28,
                    "priceNet": 0
                  }
                }
              }
            ],
            "attributes": [],
            "hasTextinput": false,
            "inputValidationType": ""
          },
          {
            "optionIdentifier": "eyes_red",
            "amountIsSelectable": false,
            "sequencenumber": 0,
            "images": null,
            "texts": [],
            "prices": [
              {
                "channelIdentifier": "_default",
                "bulkPrices": [
                  {
                    "itemAmountFrom": 1,
                    "price": 24.45,
                    "priceNet": 20.55
                  }
                ]
              }
            ],
            "deltaPrices": [
              {
                "channelIdentifier": "_default",
                "prices": {
                  "price": {
                    "price": 31.72,
                    "priceNet": 0
                  }
                }
              }
            ],
            "attributes": [],
            "hasTextinput": false,
            "inputValidationType": ""
          }
        ],
        "images": null,
        "minamount": 0,
        "maxamount": 0,
        "isMandatory": true,
        "defaultSelections": [
          {
            "optionIdentifier": "eyes_yellow",
            "amount": 1
          }
        ]
      },
      {
        "componentIdentifier": "ear_eyelid",
        "hiddenInFrontend": 0,
        "texts": [
          {
            "iso": "en_GB",
            "title": "ear & eyelid",
            "description": "",
            "abstract": ""
          },
          {
            "iso": "de_DE",
            "title": "Ohr & Augenlid",
            "description": "",
            "abstract": ""
          }
        ],
        "sequencenumber": 5,
        "attributes": [],
        "isMultiselect": false,
        "options": [
          {
            "optionIdentifier": "ear_eyelid_nature",
            "amountIsSelectable": false,
            "sequencenumber": 0,
            "images": null,
            "texts": [],
            "prices": [
              {
                "channelIdentifier": "_default",
                "bulkPrices": [
                  {
                    "itemAmountFrom": 1,
                    "price": 25.45,
                    "priceNet": 21.39
                  }
                ]
              }
            ],
            "deltaPrices": [
              {
                "channelIdentifier": "_default",
                "prices": {
                  "price": {
                    "price": 34.16,
                    "priceNet": 0
                  }
                }
              }
            ],
            "attributes": [],
            "hasTextinput": false,
            "inputValidationType": ""
          },
          {
            "optionIdentifier": "ear_eyelid_white",
            "amountIsSelectable": false,
            "sequencenumber": 0,
            "images": null,
            "texts": [],
            "prices": [
              {
                "channelIdentifier": "_default",
                "bulkPrices": [
                  {
                    "itemAmountFrom": 1,
                    "price": 26.45,
                    "priceNet": 22.23
                  }
                ]
              }
            ],
            "deltaPrices": [
              {
                "channelIdentifier": "_default",
                "prices": {
                  "price": {
                    "price": -36.6,
                    "priceNet": 0
                  }
                }
              }
            ],
            "attributes": [],
            "hasTextinput": false,
            "inputValidationType": ""
          },
          {
            "optionIdentifier": "ear_eyelid_brown",
            "amountIsSelectable": false,
            "sequencenumber": 0,
            "images": null,
            "texts": [],
            "prices": [
              {
                "channelIdentifier": "_default",
                "bulkPrices": [
                  {
                    "itemAmountFrom": 1,
                    "price": 27.45,
                    "priceNet": 23.07
                  }
                ]
              }
            ],
            "deltaPrices": [
              {
                "channelIdentifier": "_default",
                "prices": {
                  "price": {
                    "price": 39.04,
                    "priceNet": 0
                  }
                }
              }
            ],
            "attributes": [],
            "hasTextinput": false,
            "inputValidationType": ""
          }
        ],
        "images": null,
        "minamount": 0,
        "maxamount": 0,
        "isMandatory": true,
        "defaultSelections": [
          {
            "optionIdentifier": "ear_eyelid_nature",
            "amount": 1
          }
        ]
      }
    ]
  }
]