{
    "statusCode": 200,
    "headers": {
        "content-type": [
            "application\/json"
        ]
    },
    "body": {
        "id": 1,
        "name": "admin",
        "role": "ROLE_ADMIN",
        "credentials":  [
            {
                "id": 2,
                "area": "assembly_points",
                "identifier": null
            },
            {
                "id": 3,
                "area": "attribute_values",
                "identifier": null
            },
            {
                "id": 4,
                "area": "attributes",
                "identifier": null
            },
            {
                "id": 5,
                "area": "channels",
                "identifier": null
            },
            {
                "id": 6,
                "area": "clients",
                "identifier": null
            },
            {
                "id": 7,
                "area": "code_snippets",
                "identifier": null
            },
            {
                "id": 8,
                "area": "color_palettes",
                "identifier": null
            },
            {
                "id": 9,
                "area": "configuration_variants",
                "identifier": null
            },
            {
                "id": 10,
                "area": "configurations",
                "identifier": null
            },
            {
                "id": 11,
                "area": "credentials",
                "identifier": null
            },
            {
                "id": 12,
                "area": "creator_views",
                "identifier": null
            },
            {
                "id": 13,
                "area": "currencies",
                "identifier": null
            },
            {
                "id": 15,
                "area": "data_transfer",
                "identifier": null
            },
            {
                "id": 16,
                "area": "default_client",
                "identifier": null
            },
            {
                "id": 17,
                "area": "design_areas",
                "identifier": null
            },
            {
                "id": 18,
                "area": "design_production_methods",
                "identifier": null
            },
            {
                "id": 19,
                "area": "design_templates",
                "identifier": null
            },
            {
                "id": 20,
                "area": "design_views",
                "identifier": null
            },
            {
                "id": 21,
                "area": "designer_global_calculation_types",
                "identifier": null
            },
            {
                "id": 22,
                "area": "designer_global_item_prices",
                "identifier": null
            },
            {
                "id": 23,
                "area": "fonts",
                "identifier": null
            },
            {
                "id": 24,
                "area": "image_gallery",
                "identifier": null
            },
            {
                "id": 25,
                "area": "inspirations",
                "identifier": null
            },
            {
                "id": 26,
                "area": "item_classifications",
                "identifier": null
            },
            {
                "id": 27,
                "area": "item_statuses",
                "identifier": null
            },
            {
                "id": 28,
                "area": "items",
                "identifier": null
            },
            {
                "id": 29,
                "area": "items_creator",
                "identifier": null
            },
            {
                "id": 30,
                "area": "items_designer",
                "identifier": null
            },
            {
                "id": 31,
                "area": "languages",
                "identifier": null
            },
            {
                "id": 32,
                "area": "licenses",
                "identifier": null
            },
            {
                "id": 33,
                "area": "media",
                "identifier": null
            },
            {
                "id": 34,
                "area": "option_classifications",
                "identifier": null
            },
            {
                "id": 35,
                "area": "option_pools",
                "identifier": null
            },
            {
                "id": 36,
                "area": "options",
                "identifier": null
            },
            {
                "id": 37,
                "area": "production_view",
                "identifier": null
            },
            {
                "id": 38,
                "area": "roles",
                "identifier": null
            },
            {
                "id": 39,
                "area": "settings",
                "identifier": null
            },
            {
                "id": 40,
                "area": "software_updates",
                "identifier": null
            },
            {
                "id": 41,
                "area": "tags",
                "identifier": null
            },
            {
                "id": 42,
                "area": "translations",
                "identifier": null
            },
            {
                "id": 43,
                "area": "users",
                "identifier": null
            },
            {
                "id": 44,
                "area": "question_trees",
                "identifier": null
            }
        ]
    }
}
