{
    "statusCode": 200,
    "headers": {
        "content-type": [
            "application\/json"
        ]
    },
    "body": {
        "designViews": [
            {
                "identifier": "default",
                "title": "",
                "sequenceNumber": null,
                "images": [],
                "thumbnails": null,
                "designAreas": [
                    {
                        "identifier": "front_complete",
                        "sequenceNumber": "1",
                        "title": "Front center",
                        "defaultViewIdentifier": null,
                        "mask": null,
                        "baseShape": {
                            "type": "Plane",
                            "x": 0,
                            "y": 0,
                            "width": 0,
                            "height": 0
                        },
                        "position": {
                            "x": 0,
                            "y": 0,
                            "width": 0,
                            "height": 0
                        },
                        "designProductionMethods": [
                            {
                                "identifier": "screen_printing",
                                "title": "Screen Printing",
                                "mask": null,
                                "height": 355,
                                "width": 265,
                                "isDefault": false,
                                "options": {
                                    "minFontSize": 4,
                                    "maxColorAmount": 4,
                                    "visualizationEffect": null,
                                    "hasEngravingBackgroundColors": false,
                                    "vectorsRequired": true
                                },
                                "colorPalettes": [
                                    {
                                        "identifier": "default",
                                        "title": "default colors",
                                        "defaultColor": null,
                                        "colors": [
                                            {
                                                "identifier": "black",
                                                "hex_value": "000000",
                                                "title": "black"
                                            },
                                            {
                                                "identifier": "white",
                                                "hex_value": "ffffff",
                                                "title": "white"
                                            },
                                            {
                                                "identifier": "green",
                                                "hex_value": "2eb24c",
                                                "title": "green"
                                            },
                                            {
                                                "identifier": "green-yellow",
                                                "hex_value": "85c342",
                                                "title": "green-yellow"
                                            },
                                            {
                                                "identifier": "yellow",
                                                "hex_value": "f2ed22",
                                                "title": "yellow"
                                            },
                                            {
                                                "identifier": "yellow-orange",
                                                "hex_value": "fcd107",
                                                "title": "yellow-orange"
                                            },
                                            {
                                                "identifier": "orange",
                                                "hex_value": "f9a61a",
                                                "title": "orange"
                                            },
                                            {
                                                "identifier": "orange-red",
                                                "hex_value": "f57d1f",
                                                "title": "orange-red"
                                            },
                                            {
                                                "identifier": "red",
                                                "hex_value": "ec2b26",
                                                "title": "red"
                                            },
                                            {
                                                "identifier": "pink",
                                                "hex_value": "eb1a91",
                                                "title": "pink"
                                            },
                                            {
                                                "identifier": "purple",
                                                "hex_value": "804299",
                                                "title": "purple"
                                            },
                                            {
                                                "identifier": "dark blue",
                                                "hex_value": "29449b",
                                                "title": "dark blue"
                                            },
                                            {
                                                "identifier": "blue",
                                                "hex_value": "0e7bbe",
                                                "title": "blue"
                                            },
                                            {
                                                "identifier": "blue-green",
                                                "hex_value": "0bb3d8",
                                                "title": "blue-green"
                                            },
                                            {
                                                "identifier": "dark grey",
                                                "hex_value": "333333",
                                                "title": "dark grey"
                                            },
                                            {
                                                "identifier": "grey",
                                                "hex_value": "777777",
                                                "title": "grey"
                                            },
                                            {
                                                "identifier": "light grey",
                                                "hex_value": "bbbbbb",
                                                "title": "light grey"
                                            }
                                        ]
                                    }
                                ],
                                "customData": null,
                                "engravingBackgroundColors": null,
                                "allowBulkNames": false,
                                "defaultColors": null,
                                "designElementsLocked": false,
                                "maxImages": null,
                                "maxTexts": null,
                                "maxElements": null,
                                "oneLineText": false,
                                "vectorizedLogoMandatory": false
                            }
                        ],
                        "customData": null,
                        "height": 355,
                        "width": 265
                    }
                ],
                "customData": null
            }
        ],
        "uploadMaxSize": 52428800,
        "maxZoom2d": 2
    }
}