{
    "statusCode": 200,
    "headers": {
        "content-type": [
            "application\/json"
        ]
    },
    "body": {
        "designViews": [
            {
                "identifier": "front_view",
                "title": "Front view",
                "sequenceNumber": "1",
                "images": {
                    "demo_hoodie_blue_s": "\/images\/item\/view\/demo_hoodie\/front_view\/demo_hoodie_blue_s.jpg",
                    "demo_hoodie_blue_m": "\/images\/item\/view\/demo_hoodie\/front_view\/demo_hoodie_blue_m.jpg",
                    "demo_hoodie_blue_l": "\/images\/item\/view\/demo_hoodie\/front_view\/demo_hoodie_blue_l.jpg",
                    "demo_hoodie_blue_xl": "\/images\/item\/view\/demo_hoodie\/front_view\/demo_hoodie_blue_xl.jpg",
                    "demo_hoodie_green_s": "\/images\/item\/view\/demo_hoodie\/front_view\/demo_hoodie_green_s.jpg",
                    "demo_hoodie_green_m": "\/images\/item\/view\/demo_hoodie\/front_view\/demo_hoodie_green_m.jpg",
                    "demo_hoodie_green_l": "\/images\/item\/view\/demo_hoodie\/front_view\/demo_hoodie_green_l.jpg",
                    "demo_hoodie_green_xl": "\/images\/item\/view\/demo_hoodie\/front_view\/demo_hoodie_green_xl.jpg",
                    "demo_hoodie_red_s": "\/images\/item\/view\/demo_hoodie\/front_view\/demo_hoodie_red_s.jpg",
                    "demo_hoodie_red_m": "\/images\/item\/view\/demo_hoodie\/front_view\/demo_hoodie_red_m.jpg",
                    "demo_hoodie_red_l": "\/images\/item\/view\/demo_hoodie\/front_view\/demo_hoodie_red_l.jpg",
                    "demo_hoodie_red_xl": "\/images\/item\/view\/demo_hoodie\/front_view\/demo_hoodie_red_xl.jpg"
                },
                "thumbnails": {
                    "demo_hoodie_blue_s": "\/images\/item\/view_thumb\/demo_hoodie\/demo_hoodie_blue_s\/front_view.jpg",
                    "demo_hoodie_blue_m": "\/images\/item\/view_thumb\/demo_hoodie\/demo_hoodie_blue_m\/front_view.jpg",
                    "demo_hoodie_blue_l": "\/images\/item\/view_thumb\/demo_hoodie\/demo_hoodie_blue_l\/front_view.jpg",
                    "demo_hoodie_blue_xl": "\/images\/item\/view_thumb\/demo_hoodie\/demo_hoodie_blue_xl\/front_view.jpg",
                    "demo_hoodie_green_s": "\/images\/item\/view_thumb\/demo_hoodie\/demo_hoodie_green_s\/front_view.jpg",
                    "demo_hoodie_green_m": "\/images\/item\/view_thumb\/demo_hoodie\/demo_hoodie_green_m\/front_view.jpg",
                    "demo_hoodie_green_l": "\/images\/item\/view_thumb\/demo_hoodie\/demo_hoodie_green_l\/front_view.jpg",
                    "demo_hoodie_green_xl": "\/images\/item\/view_thumb\/demo_hoodie\/demo_hoodie_green_xl\/front_view.jpg",
                    "demo_hoodie_red_s": "\/images\/item\/view_thumb\/demo_hoodie\/demo_hoodie_red_s\/front_view.jpg",
                    "demo_hoodie_red_m": "\/images\/item\/view_thumb\/demo_hoodie\/demo_hoodie_red_m\/front_view.jpg",
                    "demo_hoodie_red_l": "\/images\/item\/view_thumb\/demo_hoodie\/demo_hoodie_red_l\/front_view.jpg",
                    "demo_hoodie_red_xl": "\/images\/item\/view_thumb\/demo_hoodie\/demo_hoodie_red_xl\/front_view.jpg"
                },
                "designAreas": [
                    {
                        "identifier": "front_center",
                        "sequenceNumber": "1",
                        "title": "Front center",
                        "defaultViewIdentifier": null,
                        "mask": {
                            "data": "design_area"
                        },
                        "baseShape": {
                            "type": "Plane",
                            "x": 990,
                            "y": 844,
                            "width": 876,
                            "height": 390
                        },
                        "position": {
                            "x": 100,
                            "y": 100,
                            "width": 500,
                            "height": 600
                        },
                        "designProductionMethods": [
                            {
                                "identifier": "screen_printing",
                                "title": "Screen Printing",
                                "mask": {
                                    "data": "design_area_design_production_method"
                                },
                                "height": 60,
                                "width": 50,
                                "isDefault": true,
                                "options": {
                                    "minFontSize": 4,
                                    "maxColorAmount": 4,
                                    "visualizationEffect": null,
                                    "hasEngravingBackgroundColors": false,
                                    "vectorsRequired": true
                                },
                                "colorPalettes": [
                                    {
                                        "identifier": "default",
                                        "title": "default colors",
                                        "defaultColor": null,
                                        "colors": [
                                            {
                                                "identifier": "black",
                                                "hex_value": "000000",
                                                "title": "black"
                                            },
                                            {
                                                "identifier": "white",
                                                "hex_value": "ffffff",
                                                "title": "white"
                                            },
                                            {
                                                "identifier": "green",
                                                "hex_value": "2eb24c",
                                                "title": "green"
                                            },
                                            {
                                                "identifier": "green-yellow",
                                                "hex_value": "85c342",
                                                "title": "green-yellow"
                                            },
                                            {
                                                "identifier": "yellow",
                                                "hex_value": "f2ed22",
                                                "title": "yellow"
                                            },
                                            {
                                                "identifier": "yellow-orange",
                                                "hex_value": "fcd107",
                                                "title": "yellow-orange"
                                            },
                                            {
                                                "identifier": "orange",
                                                "hex_value": "f9a61a",
                                                "title": "orange"
                                            },
                                            {
                                                "identifier": "orange-red",
                                                "hex_value": "f57d1f",
                                                "title": "orange-red"
                                            },
                                            {
                                                "identifier": "red",
                                                "hex_value": "ec2b26",
                                                "title": "red"
                                            },
                                            {
                                                "identifier": "pink",
                                                "hex_value": "eb1a91",
                                                "title": "pink"
                                            },
                                            {
                                                "identifier": "purple",
                                                "hex_value": "804299",
                                                "title": "purple"
                                            },
                                            {
                                                "identifier": "dark blue",
                                                "hex_value": "29449b",
                                                "title": "dark blue"
                                            },
                                            {
                                                "identifier": "blue",
                                                "hex_value": "0e7bbe",
                                                "title": "blue"
                                            },
                                            {
                                                "identifier": "blue-green",
                                                "hex_value": "0bb3d8",
                                                "title": "blue-green"
                                            },
                                            {
                                                "identifier": "dark grey",
                                                "hex_value": "333333",
                                                "title": "dark grey"
                                            },
                                            {
                                                "identifier": "grey",
                                                "hex_value": "777777",
                                                "title": "grey"
                                            },
                                            {
                                                "identifier": "light grey",
                                                "hex_value": "bbbbbb",
                                                "title": "light grey"
                                            }
                                        ]
                                    }
                                ],
                                "customData": null,
                                "engravingBackgroundColors": [
                                    {
                                        "itemIdentifier": "demo_hoodie_blue_s",
                                        "colorHex": "#0000FF"
                                    }
                                ],
                                "allowBulkNames": false,
                                "defaultColors": null,
                                "designElementsLocked": true,
                                "maxImages": 1,
                                "maxTexts": 3,
                                "maxElements": 4,
                                "oneLineText": false,
                                "vectorizedLogoMandatory": false
                            },
                            {
                                "identifier": "digital_printing",
                                "title": "Digital Printing",
                                "mask": {
                                    "data": "design_area_design_production_method"
                                },
                                "height": 60,
                                "width": 50,
                                "isDefault": false,
                                "options": {
                                    "minFontSize": 4,
                                    "maxColorAmount": null,
                                    "visualizationEffect": null,
                                    "hasEngravingBackgroundColors": false,
                                    "vectorsRequired": false
                                },
                                "colorPalettes": [
                                    {
                                        "identifier": "default",
                                        "title": "default colors",
                                        "defaultColor": null,
                                        "colors": [
                                            {
                                                "identifier": "black",
                                                "hex_value": "000000",
                                                "title": "black"
                                            },
                                            {
                                                "identifier": "white",
                                                "hex_value": "ffffff",
                                                "title": "white"
                                            },
                                            {
                                                "identifier": "green",
                                                "hex_value": "2eb24c",
                                                "title": "green"
                                            },
                                            {
                                                "identifier": "green-yellow",
                                                "hex_value": "85c342",
                                                "title": "green-yellow"
                                            },
                                            {
                                                "identifier": "yellow",
                                                "hex_value": "f2ed22",
                                                "title": "yellow"
                                            },
                                            {
                                                "identifier": "yellow-orange",
                                                "hex_value": "fcd107",
                                                "title": "yellow-orange"
                                            },
                                            {
                                                "identifier": "orange",
                                                "hex_value": "f9a61a",
                                                "title": "orange"
                                            },
                                            {
                                                "identifier": "orange-red",
                                                "hex_value": "f57d1f",
                                                "title": "orange-red"
                                            },
                                            {
                                                "identifier": "red",
                                                "hex_value": "ec2b26",
                                                "title": "red"
                                            },
                                            {
                                                "identifier": "pink",
                                                "hex_value": "eb1a91",
                                                "title": "pink"
                                            },
                                            {
                                                "identifier": "purple",
                                                "hex_value": "804299",
                                                "title": "purple"
                                            },
                                            {
                                                "identifier": "dark blue",
                                                "hex_value": "29449b",
                                                "title": "dark blue"
                                            },
                                            {
                                                "identifier": "blue",
                                                "hex_value": "0e7bbe",
                                                "title": "blue"
                                            },
                                            {
                                                "identifier": "blue-green",
                                                "hex_value": "0bb3d8",
                                                "title": "blue-green"
                                            },
                                            {
                                                "identifier": "dark grey",
                                                "hex_value": "333333",
                                                "title": "dark grey"
                                            },
                                            {
                                                "identifier": "grey",
                                                "hex_value": "777777",
                                                "title": "grey"
                                            },
                                            {
                                                "identifier": "light grey",
                                                "hex_value": "bbbbbb",
                                                "title": "light grey"
                                            }
                                        ]
                                    }
                                ],
                                "customData": null,
                                "engravingBackgroundColors": [
                                    {
                                        "itemIdentifier": "demo_hoodie_blue_s",
                                        "colorHex": "#0000FF"
                                    }
                                ],
                                "allowBulkNames": false,
                                "defaultColors": null,
                                "designElementsLocked": false,
                                "maxImages": 2,
                                "maxTexts": 2,
                                "maxElements": 4,
                                "oneLineText": false,
                                "vectorizedLogoMandatory": false
                            }
                        ],
                        "customData": null,
                        "height": 60,
                        "width": 50
                    },
                    {
                        "identifier": "sleeve",
                        "sequenceNumber": "3",
                        "title": "Sleeve",
                        "defaultViewIdentifier": "front_view",
                        "mask": null,
                        "baseShape": {
                            "type": "Plane",
                            "x": 990,
                            "y": 844,
                            "width": 876,
                            "height": 390
                        },
                        "position": {
                            "x": 100,
                            "y": 100,
                            "width": 1000,
                            "height": 100
                        },
                        "designProductionMethods": [],
                        "customData": null,
                        "height": 100,
                        "width": 1000
                    }
                ],
                "customData": null
            },
            {
                "identifier": "rear_view",
                "title": "Rear view",
                "sequenceNumber": "2",
                "images": [],
                "thumbnails": [],
                "designAreas": [
                    {
                        "identifier": "rear_center",
                        "sequenceNumber": "2",
                        "title": "Rear center",
                        "defaultViewIdentifier": null,
                        "mask": {
                            "data": "design_area"
                        },
                        "baseShape": {
                            "type": "Plane",
                            "x": 990,
                            "y": 844,
                            "width": 876,
                            "height": 390
                        },
                        "position": {
                            "x": 100,
                            "y": 100,
                            "width": 1000,
                            "height": 100
                        },
                        "designProductionMethods": [
                            {
                                "identifier": "embroidery",
                                "title": "Embroidery",
                                "mask": null,
                                "height": 100,
                                "width": 1000,
                                "isDefault": false,
                                "options": {
                                    "minFontSize": 6,
                                    "maxColorAmount": 8,
                                    "visualizationEffect": "embroidery",
                                    "hasEngravingBackgroundColors": false,
                                    "vectorsRequired": true
                                },
                                "colorPalettes": [
                                    {
                                        "identifier": "default",
                                        "title": "default colors",
                                        "defaultColor": null,
                                        "colors": [
                                            {
                                                "identifier": "black",
                                                "hex_value": "000000",
                                                "title": "black"
                                            },
                                            {
                                                "identifier": "white",
                                                "hex_value": "ffffff",
                                                "title": "white"
                                            },
                                            {
                                                "identifier": "green",
                                                "hex_value": "2eb24c",
                                                "title": "green"
                                            },
                                            {
                                                "identifier": "green-yellow",
                                                "hex_value": "85c342",
                                                "title": "green-yellow"
                                            },
                                            {
                                                "identifier": "yellow",
                                                "hex_value": "f2ed22",
                                                "title": "yellow"
                                            },
                                            {
                                                "identifier": "yellow-orange",
                                                "hex_value": "fcd107",
                                                "title": "yellow-orange"
                                            },
                                            {
                                                "identifier": "orange",
                                                "hex_value": "f9a61a",
                                                "title": "orange"
                                            },
                                            {
                                                "identifier": "orange-red",
                                                "hex_value": "f57d1f",
                                                "title": "orange-red"
                                            },
                                            {
                                                "identifier": "red",
                                                "hex_value": "ec2b26",
                                                "title": "red"
                                            },
                                            {
                                                "identifier": "pink",
                                                "hex_value": "eb1a91",
                                                "title": "pink"
                                            },
                                            {
                                                "identifier": "purple",
                                                "hex_value": "804299",
                                                "title": "purple"
                                            },
                                            {
                                                "identifier": "dark blue",
                                                "hex_value": "29449b",
                                                "title": "dark blue"
                                            },
                                            {
                                                "identifier": "blue",
                                                "hex_value": "0e7bbe",
                                                "title": "blue"
                                            },
                                            {
                                                "identifier": "blue-green",
                                                "hex_value": "0bb3d8",
                                                "title": "blue-green"
                                            },
                                            {
                                                "identifier": "dark grey",
                                                "hex_value": "333333",
                                                "title": "dark grey"
                                            },
                                            {
                                                "identifier": "grey",
                                                "hex_value": "777777",
                                                "title": "grey"
                                            },
                                            {
                                                "identifier": "light grey",
                                                "hex_value": "bbbbbb",
                                                "title": "light grey"
                                            }
                                        ]
                                    }
                                ],
                                "customData": null,
                                "engravingBackgroundColors": null,
                                "allowBulkNames": false,
                                "defaultColors": null,
                                "designElementsLocked": true,
                                "maxImages": null,
                                "maxTexts": null,
                                "maxElements": 4,
                                "oneLineText": false,
                                "vectorizedLogoMandatory": false
                            }
                        ],
                        "customData": null,
                        "height": 100,
                        "width": 1000
                    },
                    {
                        "identifier": "sleeve",
                        "sequenceNumber": "3",
                        "title": "Sleeve",
                        "defaultViewIdentifier": "front_view",
                        "mask": null,
                        "baseShape": {
                            "type": "Plane",
                            "x": 990,
                            "y": 844,
                            "width": 876,
                            "height": 390
                        },
                        "position": {
                            "x": 100,
                            "y": 100,
                            "width": 1000,
                            "height": 100
                        },
                        "designProductionMethods": [],
                        "customData": null,
                        "height": 100,
                        "width": 1000
                    }
                ],
                "customData": null
            },
            {
                "identifier": "side_view",
                "title": "Side view",
                "sequenceNumber": "3",
                "images": [],
                "thumbnails": [],
                "designAreas": [
                    {
                        "identifier": "sleeve",
                        "sequenceNumber": "3",
                        "title": "Sleeve",
                        "defaultViewIdentifier": "front_view",
                        "mask": null,
                        "baseShape": {
                            "type": "Plane",
                            "x": 990,
                            "y": 844,
                            "width": 876,
                            "height": 390
                        },
                        "position": {
                            "x": 100,
                            "y": 100,
                            "width": 1000,
                            "height": 100
                        },
                        "designProductionMethods": [],
                        "customData": null,
                        "height": 100,
                        "width": 1000
                    }
                ],
                "customData": null
            }
        ],
        "uploadMaxSize": 52428800,
        "maxZoom2d": 2
    }
}