{
    "statusCode": 200,
    "headers": {
        "content-type": [
            "application\/json"
        ]
    },
    "body": {
        "id": 1,
        "active": true,
        "configurationCode": "KQWUTQ",
        "texts": [
            {
                "id": 1,
                "title": "en",
                "description": null,
                "language": "en_GB"
            },
            {
                "id": 2,
                "title": "de",
                "description": null,
                "language": "de_DE"
            }
        ],
        "thumbnail": "\/images\/inspirations\/thumbnail\/1.png",
        "itemId": 2003
    }
}