{
  "statusCode": 200,
  "headers": {
    "content-type": [
      "application\/json"
    ]
  },
  "body": {
    "id": 1,
    "identifier": "My Code Snippet",
    "code": "<!-- This is a code snippet -->",
    "channel": {
      "id": 1,
      "identifier": "_default",
      "currency": {
        "id": 1,
        "iso": "eur",
        "symbol": "€"
      },
      "settings": [],
      "globalDiscountPercentage": null
    },
    "client": null,
    "language": "en_GB"
  }
}
