{
    "statusCode": 200,
    "headers": {
        "content-type": [
            "application\/json"
        ]
    },
    "body": {
        "metadata": {
            "totalcount": "1"
        },
        "data": [
            {
                "id": 2,
                "identifier": "test_client",
                "code": "test",
                "channel": null,
                "client": {
                    "id": 2,
                    "identifier": "rhm",
                    "email": null,
                    "theme": null,
                    "contactName": null,
                    "contactStreet": null,
                    "contactPostCode": null,
                    "contactCity": null,
                    "contactPhone": null,
                    "contactEmail": null,
                    "texts": [],
                    "channels": [],
                    "users": [
                        {
                            "id": "2",
                            "username": "rhm",
                            "firstname": null,
                            "lastname": null,
                            "email": "rhm@redhotmagma.de",
                            "password": "",
                            "active": true,
                            "roles": [
                                {
                                    "id": "2",
                                    "name": "client",
                                    "role": null,
                                    "credentials": null
                                }
                            ]
                        }
                    ],
                    "customCss": null,
                    "callToAction": null,
                    "fromEmailAddress": null,
                    "toEmailAddresses": null,
                    "ccEmailAddresses": null,
                    "bccEmailAddresses": null,
                    "pdfHeaderHtml": null,
                    "pdfFooterHtml": null,
                    "pdfHeaderText": null,
                    "pdfFooterText": null,
                    "sendOfferRequestMailToCustomer": false
                },
                "language": "de_DE"
            }
        ]
    }
}
