{
    "statusCode": 200,
    "headers": {
        "content-type": [
            "application\/json"
        ]
    },
    "body": {
        "metadata": {
            "totalcount": "11"
        },
        "data": [
            {
                "id": 1,
                "identifier": "tree_1",
                "translated_title": "Question Tree 1",
                "texts": [
                    {
                        "id": 1,
                        "language": "de_DE",
                        "title": "Question Tree 1"
                    }
                ],
                "data": [
                    {
                        "id": 3,
                        "language": "de_DE",
                        "fileName": "german.json"
                    }
                ]
            },
            {
                "id": 2,
                "identifier": "tree_2",
                "translated_title": "",
                "texts": [],
                "data": []
            },
            {
                "id": 3,
                "identifier": "tree_3",
                "translated_title": "",
                "texts": [],
                "data": []
            },
            {
                "id": 4,
                "identifier": "tree_4",
                "translated_title": "",
                "texts": [],
                "data": []
            },
            {
                "id": 5,
                "identifier": "tree_5",
                "translated_title": "",
                "texts": [],
                "data": []
            },
            {
                "id": 6,
                "identifier": "tree_6",
                "translated_title": "",
                "texts": [],
                "data": []
            },
            {
                "id": 7,
                "identifier": "tree_7",
                "translated_title": "",
                "texts": [],
                "data": []
            },
            {
                "id": 8,
                "identifier": "tree_8",
                "translated_title": "",
                "texts": [],
                "data": []
            },
            {
                "id": 9,
                "identifier": "tree_9",
                "translated_title": "",
                "texts": [],
                "data": []
            },
            {
                "id": 10,
                "identifier": "tree_10",
                "translated_title": "",
                "texts": [],
                "data": []
            }
        ]
    }
}