{
   "item":{
      "id":1,
      "identifier":"sheep",
      "title":"Sheep"
   },
   "identifier":"test_create",
   "texts":[
      {
         "title":"Clip en",
         "language":"en_GB"
      },
      {
         "title":"Clip de",
         "language":"de_DE"
      }
   ],
   "mask":{"data":"design_area"},
   "height":18,
   "width":13,
   "designProductionMethods":[
      {
         "id":1,
         "identifier":"print",
         "title":"string",
         "mask":{"data":"design_area_design_production_method"},
         "height":0,
         "width":0,
         "elementsLocked":true,
         "maxElements":4,
         "maxImages":2,
         "maxTexts":2,
         "options":{

         },
         "minimumOrderAmount": null,
         "calculationTypes":[
            {
               "id":1,
               "identifier":"print",
               "colorAmountDependent":true,
               "itemAmountDependent":true,
               "selectableByUser":false,
               "title":"Print",
               "prices":[
                  {
                     "channel":"1",
                     "colorAmountFrom":1,
                     "amountFrom":1,
                     "price":"1.00",
                     "priceNet":"1.19"
                  },
                  {
                     "channel":"1",
                     "colorAmountFrom":3,
                     "amountFrom":1,
                     "price":"2.39",
                     "priceNet":"2.00"
                  },
                  {
                     "channel":"1",
                     "colorAmountFrom":1,
                     "amountFrom":100,
                     "price":"0.00",
                     "priceNet":"0.00"
                  },
                  {
                     "channel":"1",
                     "colorAmountFrom":3,
                     "amountFrom":100,
                     "price":"0.00",
                     "priceNet":"0.00"
                  }
               ]
            },
            {
               "id":2,
               "identifier":"finish",
               "colorAmountDependent":false,
               "itemAmountDependent":true,
               "selectableByUser":false,
               "title":"Finish",
               "prices":[
                  {
                     "channel":"1",
                     "colorAmountFrom":1,
                     "amountFrom":1,
                     "price":"0.59",
                     "priceNet":"0.50"
                  },
                  {
                     "channel":"1",
                     "colorAmountFrom":1,
                     "amountFrom":100,
                     "price":"0.11",
                     "priceNet":"0.10"
                  }
               ]
            }
         ],
         "customData":{
         }
      }
   ],
   "customData":[
      1,
      2,
      3
   ],
   "allowBulkNames": "1"
}
