{
    "statusCode": 200,
    "headers": {
        "content-type": [
            "application\/json"
        ]
    },
    "body": {
        "metadata": {
            "totalcount": "2"
        },
        "data": [
            {
                "id": 1,
                "identifier": "front",
                "item": {
                    "id": 1,
                    "identifier": "sheep",
                    "title": "Sheep"
                },
                "option": null,
                "mask": {
                    "data": "design_area"
                },
                "sequenceNumber": "10",
                "texts": [
                    {
                        "id": 1,
                        "language": "en_GB",
                        "title": "Clip en"
                    },
                    {
                        "id": 2,
                        "language": "de_DE",
                        "title": "Clip de"
                    }
                ],
                "height": 400,
                "width": 250,
                "designProductionMethods": [
                    {
                        "id": 1,
                        "identifier": "screen_printing",
                        "title": "Screen Printing",
                        "mask": {
                            "data": "design_area_design_production_method"
                        },
                        "height": 200,
                        "width": 300,
                        "isDefault": false,
                        "options": {
                            "minFontSize": 4,
                            "maxColorAmount": 4,
                            "visualizationEffect": null,
                            "hasEngravingBackgroundColors": false,
                            "vectorsRequired": true
                        },
                        "minimumOrderAmount": 20,
                        "calculationTypes": [
                            {
                                "id": 1,
                                "identifier": "print",
                                "colorAmountDependent": true,
                                "itemAmountDependent": true,
                                "selectableByUser": false,
                                "title": "Print",
                                "prices": [
                                    {
                                        "id": 1,
                                        "channel": "1",
                                        "colorAmountFrom": 1,
                                        "amountFrom": 1,
                                        "price": "1.00000",
                                        "priceNet": "1.19000"
                                    },
                                    {
                                        "id": 2,
                                        "channel": "1",
                                        "colorAmountFrom": 3,
                                        "amountFrom": 1,
                                        "price": "2.39000",
                                        "priceNet": "2.00000"
                                    },
                                    {
                                        "id": 3,
                                        "channel": "1",
                                        "colorAmountFrom": 1,
                                        "amountFrom": 100,
                                        "price": "0.00000",
                                        "priceNet": "0.00000"
                                    },
                                    {
                                        "id": 4,
                                        "channel": "1",
                                        "colorAmountFrom": 3,
                                        "amountFrom": 100,
                                        "price": "0.00000",
                                        "priceNet": "0.00000"
                                    }
                                ],
                                "bulkNameDependent": false
                            },
                            {
                                "id": 2,
                                "identifier": "finish",
                                "colorAmountDependent": false,
                                "itemAmountDependent": true,
                                "selectableByUser": false,
                                "title": "Finish",
                                "prices": [
                                    {
                                        "id": 5,
                                        "channel": "1",
                                        "colorAmountFrom": 1,
                                        "amountFrom": 1,
                                        "price": "0.59000",
                                        "priceNet": "0.50000"
                                    },
                                    {
                                        "id": 6,
                                        "channel": "1",
                                        "colorAmountFrom": 1,
                                        "amountFrom": 100,
                                        "price": "0.11000",
                                        "priceNet": "0.10000"
                                    }
                                ],
                                "bulkNameDependent": false
                            }
                        ],
                        "customData": {
                            "active": true,
                            "modifier": "EXP"
                        },
                        "allowBulkNames": true,
                        "additionalData": null,
                        "defaultColors": {
                            "default": "red"
                        },
                        "designElementsLocked": true,
                        "maxImages": 1,
                        "maxTexts": 3,
                        "maxElements": 4,
                        "oneLineText": false
                    },
                    {
                        "id": 2,
                        "identifier": "pad_printing",
                        "title": "Pad Printing",
                        "mask": {
                            "data": "design_area_design_production_method"
                        },
                        "height": 130,
                        "width": 180,
                        "isDefault": false,
                        "options": {
                            "minFontSize": 4,
                            "maxColorAmount": 4,
                            "visualizationEffect": null,
                            "hasEngravingBackgroundColors": false,
                            "vectorsRequired": true
                        },
                        "minimumOrderAmount": null,
                        "calculationTypes": null,
                        "customData": "Hint: be careful 2",
                        "allowBulkNames": false,
                        "additionalData": null,
                        "defaultColors": null,
                        "designElementsLocked": true,
                        "maxImages": null,
                        "maxTexts": null,
                        "maxElements": null,
                        "oneLineText": false
                    }
                ],
                "customData": [
                    1,
                    2,
                    3
                ]
            },
            {
                "id": 2,
                "identifier": "back",
                "item": null,
                "option": {
                    "id": 1,
                    "identifier": "coat_nature",
                    "title": "coat"
                },
                "mask": {
                    "data": "design_area"
                },
                "sequenceNumber": "20",
                "texts": [
                    {
                        "id": 3,
                        "language": "en_GB",
                        "title": "Shaft en"
                    },
                    {
                        "id": 4,
                        "language": "de_DE",
                        "title": "Shaft de"
                    }
                ],
                "height": 200,
                "width": 200,
                "designProductionMethods": [
                    {
                        "id": 1,
                        "identifier": "screen_printing",
                        "title": "Screen Printing",
                        "mask": {
                            "data": "design_area_design_production_method"
                        },
                        "height": 130,
                        "width": 180,
                        "isDefault": false,
                        "options": {
                            "minFontSize": 4,
                            "maxColorAmount": 4,
                            "visualizationEffect": null,
                            "hasEngravingBackgroundColors": false,
                            "vectorsRequired": true
                        },
                        "minimumOrderAmount": null,
                        "calculationTypes": [
                            {
                                "id": 1,
                                "identifier": "print",
                                "colorAmountDependent": true,
                                "itemAmountDependent": true,
                                "selectableByUser": false,
                                "title": "Print",
                                "prices": null,
                                "bulkNameDependent": false
                            },
                            {
                                "id": 2,
                                "identifier": "finish",
                                "colorAmountDependent": false,
                                "itemAmountDependent": true,
                                "selectableByUser": false,
                                "title": "Finish",
                                "prices": null,
                                "bulkNameDependent": false
                            }
                        ],
                        "customData": "Hint: be careful",
                        "allowBulkNames": false,
                        "additionalData": null,
                        "defaultColors": null,
                        "designElementsLocked": false,
                        "maxImages": 2,
                        "maxTexts": 2,
                        "maxElements": 4,
                        "oneLineText": false
                    },
                    {
                        "id": 2,
                        "identifier": "pad_printing",
                        "title": "Pad Printing",
                        "mask": {
                            "data": "design_area_design_production_method"
                        },
                        "height": 130,
                        "width": 180,
                        "isDefault": true,
                        "options": {
                            "minFontSize": 4,
                            "maxColorAmount": 4,
                            "visualizationEffect": null,
                            "hasEngravingBackgroundColors": false,
                            "vectorsRequired": true
                        },
                        "minimumOrderAmount": null,
                        "calculationTypes": null,
                        "customData": "Hint: be careful 3",
                        "allowBulkNames": false,
                        "additionalData": null,
                        "defaultColors": null,
                        "designElementsLocked": false,
                        "maxImages": 1,
                        "maxTexts": 3,
                        "maxElements": 4,
                        "oneLineText": false
                    }
                ],
                "customData": [
                    1,
                    2,
                    3
                ]
            }
        ]
    }
}