{
    "status": false,
    "rule_type": "itemattributematch",
    "checked_option": {
        "identifier": "coat_red",
        "title": "{coat_red}",
        "abstract": "{coat_red}",
        "description": "{coat_red}",
        "attributes": [
            {
                "identifier": "color",
                "title": null,
                "attributedatatype": "string",
                "values": [
                    {
                        "id": 104,
                        "value": "black",
                        "translated_value": "{black}",
                        "translations": []
                    }
                ],
                "attribute_id": 103,
                "translated_title": "{}",
                "texts": []
            }
        ],
        "price": 14.45,
        "stock": {},
        "amount": 1,
        "amount_is_selectable": null,
        "priceFormatted": "€ 14.45"
    },
    "conflicting_options": [
        {
            "identifier": "face_nature",
            "title": "{face_nature}",
            "abstract": "{face_nature}",
            "description": "{face_nature}",
            "attributes": [
                {
                    "identifier": "color",
                    "translated_title": "{}",
                    "texts": [],
                    "attributedatatype": "string",
                    "values": [
                        {
                            "value": "white",
                            "translated_value": "{white}",
                            "_metadata": {
                                "changedProperties": [
                                    "value",
                                    "translated_value"
                                ]
                            }
                        }
                    ],
                    "_metadata": {
                        "changedProperties": [
                            "identifier",
                            "translated_title",
                            "texts",
                            "attributedatatype",
                            "values"
                        ]
                    }
                }
            ],
            "price": 15.45,
            "netPrice": null,
            "priceFormatted": "€ 15.45",
            "stock": {
                "status": null,
                "deliverytime": null,
                "traffic_light": null,
                "id": []
            },
            "amount": 1,
            "amount_is_selectable": null,
            "detailImage": null,
            "thumbnail": null,
            "hasTextinput": null,
            "inputValidationType": null,
            "inputText": null,
            "_metadata": {
                "changedProperties": [
                    "identifier",
                    "title",
                    "abstract",
                    "description",
                    "attributes",
                    "price",
                    "stock",
                    "amount",
                    "amount_is_selectable"
                ]
            }
        }
    ],
    "message": "Incompatible values for \"Farbe\".",
    "data": {
        "switchOptions": {
            "face": [
                {
                    "identifier": "face_nature",
                    "amount": 0,
                    "price": 15.45,
                    "priceFormatted": "€ 15.45"
                }
            ]
        }
    }
}