{
    "statusCode": 200,
    "headers": {
        "content-type": [
            "application\/json"
        ]
    },
    "body": {
        "code": "defaultoptions_1",
        "parentCode": null,
        "name": "defaultoptions_sheep",
        "item": {
            "identifier": "sheep",
            "parentItemIdentifier": "sheep",
            "settings": {
                "visualizationCreator": "3dScene",
                "visualizationDesigner": "fallback"
            },
            "configurationModes": [
                {
                    "identifier": "creator",
                    "itemStatus": {
                        "identifier": "available",
                        "item_available": true
                    }
                },
                {
                    "identifier": "designer",
                    "itemStatus": {
                        "identifier": "not_available",
                        "item_available": false
                    }
                }
            ],
            "title": "Sheep",
            "abstract": "Your wooly new friend.",
            "description": "May be a black sheep. It\u00b4s up to you!",
            "detailImage": "\/images\/item\/image\/sheep.png",
            "thumbnail": "\/images\/item\/thumb\/sheep.png",
            "attributes": [
                {
                    "attribute_id": null,
                    "identifier": "tags",
                    "translated_title": null,
                    "texts": null,
                    "attributedatatype": "string",
                    "values": [
                        {
                            "value": "vegetarian",
                            "translated_value": "vegetarian"
                        },
                        {
                            "value": "edible",
                            "translated_value": "edible"
                        }
                    ],
                    "title": "tags"
                }
            ],
            "price": 199,
            "netPrice": 167.22,
            "stock": [
                {
                    "id": 1,
                    "status": null,
                    "deliverytime": "",
                    "channel": "1",
                    "amount": null
                }
            ],
            "minimumOrderAmount": null,
            "itemGroup": null,
            "callToAction": "addToCart",
            "itemclassifications": [
                {
                    "id": 1,
                    "parent_id": null,
                    "identifier": "animal",
                    "sequencenumber": 1,
                    "translated_title": "animal",
                    "translated_description": "all kinds of animals",
                    "texts": [
                        {
                            "id": 1,
                            "language": "en_GB",
                            "title": "animal",
                            "description": "all kinds of animals"
                        },
                        {
                            "id": 2,
                            "language": "de_DE",
                            "title": "Tier",
                            "description": "alle m\u00f6glichen Tiere"
                        }
                    ],
                    "attributes": [],
                    "minimumOrderAmount": null
                }
            ]
        },
        "itemIdentifier": "sheep",
        "calculation": {
            "total": 293.25,
            "totalFormatted": "\u20ac 293.25",
            "netTotal": 246.42,
            "netTotalFormatted": "\u20ac 246.42",
            "netTotalFromGrossTotal": 246.4285714286,
            "netTotalFromGrossTotalFormatted": "\u20ac 246.43",
            "vatRate": 19,
            "positions": [
                {
                    "title": "Sheep",
                    "calculationTypeIdentifier": "item",
                    "itemAmountDependent": true,
                    "declareSeparately": true,
                    "selectableByUser": false,
                    "selected": true,
                    "price": 293.25,
                    "priceFormatted": "\u20ac 293.25",
                    "priceNet": 246.42000000000002,
                    "priceNetFormatted": "\u20ac 246.42"
                }
            ],
            "bulkSavings": []
        },
        "optionclassifications": [
            {
                "identifier": "coat",
                "title": "coat",
                "selectedoptions": [
                    {
                        "identifier": "coat_nature",
                        "title": "{coat_nature}",
                        "amount": 1
                    }
                ]
            },
            {
                "identifier": "face",
                "title": "face",
                "selectedoptions": [
                    {
                        "identifier": "face_nature",
                        "title": "{face_nature}",
                        "amount": 1
                    }
                ]
            },
            {
                "identifier": "legs",
                "title": "legs",
                "selectedoptions": [
                    {
                        "identifier": "legs_nature",
                        "title": "{legs_nature}",
                        "amount": 1
                    }
                ]
            },
            {
                "identifier": "eyes",
                "title": "eyes",
                "selectedoptions": [
                    {
                        "identifier": "eyes_yellow",
                        "title": "{eyes_yellow}",
                        "amount": 1
                    }
                ]
            },
            {
                "identifier": "ear_eyelid",
                "title": "ear & eyelid",
                "selectedoptions": [
                    {
                        "identifier": "ear_eyelid_nature",
                        "title": "{ear_eyelid_nature}",
                        "amount": 1
                    }
                ]
            }
        ],
        "images": [],
        "printImages": [],
        "customdata": null,
        "designData": [
            []
        ],
        "date_created": {
            "date": "2023-09-13 13:49:00.000000",
            "timezone_type": 3,
            "timezone": "Europe\/Berlin"
        },
        "finderResult": null
    }
}