{
    "statusCode": 200,
    "headers": {
        "content-type": [
            "application\/json"
        ]
    },
    "body": {
        "id": 1,
        "parent_id": null,
        "identifier": "animal",
        "sequencenumber": 1,
        "translated_title": "animal",
        "translated_description": "all kinds of animals",
        "texts": [
            {
                "id": 1,
                "language": "en_GB",
                "title": "animal",
                "description": "all kinds of animals"
            },
            {
                "id": 2,
                "language": "de_DE",
                "title": "Tier",
                "description": "alle m\u00f6glichen Tiere"
            }
        ],
        "attributes": [],
        "minimumOrderAmount": null
    }
}