[
    {
        "itemIdentifier": "t_shirt",
        "configurationMode": "designer",
        "itemStatusIdentifier": "available",
        "visualizationModeIdentifier": "2dVariant",
        "children": [
            {
                "itemIdentifier": "t_shirt_red_s",
                "texts": [
                    {
                        "iso": "en_GB",
                        "title": "T-shirt, red, s",
                        "description": ""
                    }
                ],
                "images": {
                    "thumbnail": "http://localhost/tests/sample-1.jpg",
                    "detailImage": "http://localhost/tests/sample-1.jpg"
                },
                "minimumOrderAmount": 1,
                "accumulateAmounts": true,
                "prices": [
                    {
                        "channelIdentifier": "de_eur",
                        "bulkPrices": [
                            {
                                "itemAmountFrom": 1,
                                "price": 19.90,
                                "priceNet": 16.70
                            }
                        ]
                    }
                ],
                "attributes": [
                    {
                        "attributeIdentifier": "tag",
                        "type": "string",
                        "texts": [
                            {
                                "iso": "en_GB",
                                "title": "Tag"
                            }
                        ],
                        "attributeValues": [
                            {
                                "value": "winter",
                                "translations": [
                                    {
                                        "iso": "en_GB",
                                        "translation": "Winter"
                                    },
                                    {
                                        "iso": "de_DE",
                                        "translation": "Winter"
                                    }
                                ]
                            }
                        ]
                    }
                ],
                "childGroups": [
                    {
                        "group": {
                            "groupIdentifier": "color",
                            "texts": [
                                {
                                    "iso": "en_GB",
                                    "title": "Color"
                                }
                            ]
                        },
                        "groupValue": {
                            "groupValueIdentifier": "red",
                            "texts": [
                                {
                                    "iso": "en_GB",
                                    "title": "Red"
                                }
                            ]
                        }
                    },
                    {
                        "group": {
                            "groupIdentifier": "size",
                            "texts": [
                                {
                                    "iso": "en_GB",
                                    "title": "Size"
                                }
                            ]
                        },
                        "groupValue": {
                            "groupValueIdentifier": "s",
                            "texts": [
                                {
                                    "iso": "en_GB",
                                    "title": "S"
                                }
                            ]
                        }
                    }
                ]
            }
        ],
        "texts": [
            {
                "iso": "en_GB",
                "title": "T-shirt",
                "description": ""
            }
        ],
        "images": {
            "thumbnail": "http://localhost/tests/sample-1.jpg",
            "detailImage": "http://localhost/tests/sample-1.jpg"
        },
        "minimumOrderAmount": 1,
        "accumulateAmounts": false,
        "prices": [
            {
                "channelIdentifier": "de_eur",
                "bulkPrices": [
                    {
                        "itemAmountFrom": 1,
                        "price": 19.90,
                        "priceNet": 16.70
                    }
                ]
            },
            {
                "channelIdentifier": "de_eur",
                "bulkPrices": [
                    {
                        "itemAmountFrom": 10,
                        "price": 9.90,
                        "priceNet": 6.70
                    }
                ]
            }
        ],
        "attributes": [
            {
                "attributeIdentifier": "tag",
                "type": "string",
                "texts": [
                    {
                        "iso": "en_GB",
                        "title": "Tag"
                    }
                ],
                "attributeValues": [
                    {
                        "value": "summer",
                        "translations": [
                            {
                                "iso": "en_GB",
                                "translation": "Summer"
                            }
                        ]
                    },
                    {
                        "value": "summer",
                        "translations": [
                            {
                                "iso": "en_US",
                                "translation": "Summer2"
                            }
                        ]
                    }
                ]
            }
        ],
        "designAreas": [
            {
                "designAreaIdentifier": "front_top",
                "texts": [
                    {
                        "iso": "de_DE",
                        "title": "front top"
                    }
                ],
                "widthMillimeter": 300,
                "heightMillimeter": 30,
                "visualData": [
                    {
                        "designViewIdentifier": "front",
                        "default": true,
                        "customData": {},
                        "texts": [
                            {
                                "iso": "en_GB",
                                "title": "Front view"
                            }
                        ],
                        "mediaURLs": [
                            {
                                "itemIdentifier": "t_shirt_red_s",
                                "mediaURL": "http://localhost/tests/sample-1.jpg"
                            }
                        ],
                        "position": {
                            "x": 400,
                            "y": 200
                        },
                        "widthPixels": 200,
                        "heightPixels": 20
                    }
                ],
                "visualizationBackgroundColors": [
                    {
                        "itemIdentifier": "t_shirt_red_s",
                        "color": "#FF0000"
                    }
                ],
                "customData": {},
                "designProductionMethods": [
                    {
                        "designProductionMethodIdentifier": "offset_print",
                        "widthMillimeter": 320,
                        "heightMillimeter": 30,
                        "allowBulkNames": true,
                        "default": true,
                        "designElementsLocked": true,
                        "maxElements": 5,
                        "maxImages": 2,
                        "maxTexts": 3,
                        "prices": [
                            {
                                "channelIdentifier": "de_eur",
                                "calculationTypes": [
                                    {
                                        "typeIdentifier": "productionPrice",
                                        "bulkPrices": [
                                            {
                                                "itemAmountFrom": 1,
                                                "colorAmountFrom": 1,
                                                "price": 1.99,
                                                "priceNet": 1.67
                                            }
                                        ]
                                    }
                                ]
                            }
                        ],
                        "minimumOrderAmount": 100
                    }
                ]
            }
        ],
        "components": [
            {
                "componentIdentifier": "main_color",
                "isMultiselect": true,
                "minamount": 5,
                "maxamount": 10,
                "isMandatory": false,
                "sequencenumber": 3,
                "images": {
                    "thumbnail": "http://localhost/tests/sample-1.jpg"
                },
                "texts": [
                    {
                        "iso": "en_GB",
                        "title": "Main Color"
                    },
                    {
                        "iso": "de_DE",
                        "title": "Hauptfarbe"
                    }
                ],
                "attributes": [
                    {
                        "attributeIdentifier": "category_type",
                        "type": "string",
                        "texts": [
                            {
                                "iso": "en_GB",
                                "title": "Category Type"
                            },
                            {
                                "iso": "de_DE",
                                "title": "Kategorie Typ"
                            }
                        ],
                        "attributeValues": [
                            {
                                "value": "fabrics",
                                "translations": [
                                    {
                                        "iso": "en_GB",
                                        "translation": "Fabrics"
                                    },
                                    {
                                        "iso": "de_DE",
                                        "translation": "Stoffe"
                                    }
                                ]
                            }
                        ]
                    }
                ],
                "defaultSelections": [
                    {
                        "optionIdentifier": "red",
                        "amount": 1
                    }
                ],
                "options": [
                    {
                        "optionIdentifier": "red",
                        "amountIsSelectable": false,
                        "sequencenumber": 2,
                        "inputValidationType": "SomeValidator",
                        "hasTextinput": true,
                        "images": {
                            "thumbnail": "http://localhost/tests/sample-1.jpg",
                            "detailImage": "http://localhost/tests/sample-1.jpg"
                        },
                        "texts": [
                            {
                                "iso": "en_GB",
                                "title": "Red"
                            },
                            {
                                "iso": "de_DE",
                                "title": "Rot"
                            }
                        ],
                        "prices": [
                            {
                                "channelIdentifier": "de_eur",
                                "prices": [
                                    {
                                        "amountFrom": 1,
                                        "price": 5.1,
                                        "priceNet": 4.29
                                    }
                                ]
                            }
                        ],
                        "deltaPrices": [
                            {
                                "channelIdentifier": "de_eur",
                                "prices": [
                                    {
                                        "price": 3.9,
                                        "priceNet": 3.28
                                    }
                                ]
                            }
                        ],
                        "attributes": [
                            {
                                "attributeIdentifier": "color_filter",
                                "type": "string",
                                "texts": [
                                    {
                                        "iso": "en_GB",
                                        "title": "Color Filter"
                                    },
                                    {
                                        "iso": "de_DE",
                                        "title": "Farb Filter"
                                    }
                                ],
                                "attributeValues": [
                                    {
                                        "value": "warm_colors",
                                        "translations": [
                                            {
                                                "iso": "en_GB",
                                                "translation": "Warm Colors"
                                            },
                                            {
                                                "iso": "de_DE",
                                                "translation": "Warme Farben"
                                            }
                                        ]
                                    }
                                ]
                            }
                        ]
                    },
                    {
                        "optionIdentifier": "orange",
                        "amountIsSelectable": false,
                        "sequencenumber": 1,
                        "texts": [
                            {
                                "iso": "en_GB",
                                "title": "Orange"
                            },
                            {
                                "iso": "de_DE",
                                "title": "Orange"
                            }
                        ],
                        "prices": [
                            {
                                "channelIdentifier": "de_eur",
                                "prices": [
                                    {
                                        "amountFrom": 1,
                                        "price": 7,
                                        "priceNet": 5.88
                                    }
                                ]
                            }
                        ],
                        "deltaPrices": [
                            {
                                "channelIdentifier": "de_eur",
                                "prices": [
                                    {
                                        "price": 5,
                                        "priceNet": 4.2
                                    }
                                ]
                            }
                        ],
                        "attributes": [
                            {
                                "attributeIdentifier": "color_filter",
                                "type": "string",
                                "texts": [
                                    {
                                        "iso": "en_GB",
                                        "title": "Color Filter"
                                    },
                                    {
                                        "iso": "de_DE",
                                        "title": "Farb Filter"
                                    }
                                ],
                                "attributeValues": [
                                    {
                                        "value": "warm_colors",
                                        "translations": [
                                            {
                                                "iso": "en_GB",
                                                "translation": "Warm Colors"
                                            },
                                            {
                                                "iso": "de_DE",
                                                "translation": "Warme Farben"
                                            }
                                        ]
                                    }
                                ]
                            }
                        ]
                    },
                    {
                        "optionIdentifier": "blue",
                        "amountIsSelectable": false,
                        "sequencenumber": 2,
                        "texts": [
                            {
                                "iso": "en_GB",
                                "title": "Blue"
                            }
                        ],
                        "prices": [
                            {
                                "channelIdentifier": "de_eur",
                                "prices": [
                                    {
                                        "amountFrom": 1,
                                        "price": 5.1,
                                        "priceNet": 4.29
                                    }
                                ]
                            }
                        ],
                        "deltaPrices": [
                            {
                                "channelIdentifier": "de_eur",
                                "prices": [
                                    {
                                        "price": 3.9,
                                        "priceNet": 3.28
                                    }
                                ]
                            }
                        ],
                        "attributes": [
                            {
                                "attributeIdentifier": "color_filter",
                                "type": "string",
                                "texts": [
                                    {
                                        "iso": "en_GB",
                                        "title": "Color Filter"
                                    }
                                ],
                                "attributeValues": [
                                    {
                                        "value": "cold_colors",
                                        "translations": [
                                            {
                                                "iso": "en_GB",
                                                "translation": "Cold Colors"
                                            },
                                            {
                                                "iso": "de_DE",
                                                "translation": "Kalte Farben"
                                            }
                                        ]
                                    }
                                ]
                            }
                        ]
                    }
                ]
            }
        ]
    },
    {
        "itemIdentifier": "t_shirt",
        "configurationMode": "designer",
        "itemStatusIdentifier": "available",
        "visualizationModeIdentifier": "2dVariant",
        "itemStatuses": [
            {
                "configurationModeIdentifier": "creator",
                "available": false
            },
            {
                "configurationModeIdentifier": "designer",
                "available": true
            }
        ],
        "children": [
            {
                "itemIdentifier": "t_shirt_red_s",
                "texts": [
                    {
                        "iso": "en_GB",
                        "title": "T-shirt, red, s",
                        "description": ""
                    }
                ],
                "images": {
                    "thumbnail": "http://localhost/tests/sample-1.jpg",
                    "detailImage": "http://localhost/tests/sample-1.jpg"
                },
                "minimumOrderAmount": 1,
                "accumulateAmounts": true,
                "prices": [
                    {
                        "channelIdentifier": "de_eur",
                        "bulkPrices": [
                            {
                                "itemAmountFrom": 1,
                                "price": 19.90,
                                "priceNet": 16.70
                            }
                        ]
                    }
                ],
                "attributes": [
                    {
                        "attributeIdentifier": "tag",
                        "type": "string",
                        "texts": [
                            {
                                "iso": "en_GB",
                                "title": "Tag"
                            }
                        ],
                        "attributeValues": [
                            {
                                "value": "summer",
                                "translations": [
                                    {
                                        "iso": "en_GB",
                                        "translation": "Summer"
                                    },
                                    {
                                        "iso": "de_DE",
                                        "translation": "Sommer"
                                    }
                                ]
                            }
                        ]
                    }
                ],
                "childGroups": [
                    {
                        "group": {
                            "groupIdentifier": "color",
                            "texts": [
                                {
                                    "iso": "en_GB",
                                    "title": "Color"
                                }
                            ]
                        },
                        "groupValue": {
                            "groupValueIdentifier": "red",
                            "texts": [
                                {
                                    "iso": "en_GB",
                                    "title": "Red"
                                }
                            ]
                        }
                    },
                    {
                        "group": {
                            "groupIdentifier": "size",
                            "texts": [
                                {
                                    "iso": "en_GB",
                                    "title": "Size"
                                }
                            ]
                        },
                        "groupValue": {
                            "groupValueIdentifier": "s",
                            "texts": [
                                {
                                    "iso": "en_GB",
                                    "title": "S"
                                }
                            ]
                        }
                    }
                ]
            }
        ],
        "texts": [
            {
                "iso": "en_GB",
                "title": "T-shirt new",
                "description": ""
            }
        ],
        "images": {
            "thumbnail": "http://localhost/tests/sample-1.jpg",
            "detailImage": "http://localhost/tests/sample-1.jpg"
        },
        "minimumOrderAmount": 22,
        "accumulateAmounts": true,
        "prices": [
            {
                "channelIdentifier": "de_eur",
                "bulkPrices": [
                    {
                        "itemAmountFrom": 1,
                        "price": 19.90,
                        "priceNet": 16.70
                    }
                ]
            }
        ],
        "attributes": [
            {
                "attributeIdentifier": "tag",
                "type": "string",
                "texts": [
                    {
                        "iso": "en_GB",
                        "title": "Tag"
                    }
                ],
                "attributeValues": [
                    {
                        "value": "summer",
                        "translations": [
                            {
                                "iso": "en_GB",
                                "translation": "Summer"
                            }
                        ]
                    }
                ]
            }
        ],
        "designAreas": [
            {
                "designAreaIdentifier": "front_top",
                "texts": [
                    {
                        "iso": "de_DE",
                        "title": "front top"
                    }
                ],
                "widthMillimeter": 300,
                "heightMillimeter": 30,
                "visualData": [
                    {
                        "designViewIdentifier": "front",
                        "customData": {},
                        "texts": [
                            {
                                "iso": "en_GB",
                                "title": "Front view"
                            }
                        ],
                        "mediaURLs": [
                            {
                                "itemIdentifier": "t_shirt_red_s",
                                "mediaURL": ""
                            }
                        ],
                        "position": {
                            "x": 400,
                            "y": 200
                        },
                        "widthPixels": 200,
                        "heightPixels": 20
                    }
                ],
                "visualizationBackgroundColors": [
                    {
                        "itemIdentifier": "t_shirt_red_s",
                        "color": "#FF0000"
                    }
                ],
                "customData": {},
                "designProductionMethods": [
                    {
                        "designProductionMethodIdentifier": "offset_print",
                        "widthMillimeter": 320,
                        "heightMillimeter": 30,
                        "prices": [
                            {
                                "channelIdentifier": "de_eur",
                                "calculationTypes": [
                                    {
                                        "typeIdentifier": "productionPrice",
                                        "bulkPrices": [
                                            {
                                                "itemAmountFrom": 1,
                                                "colorAmountFrom": 1,
                                                "price": 1.99,
                                                "priceNet": 1.67
                                            }
                                        ]
                                    }
                                ]
                            }
                        ],
                        "minimumOrderAmount": 200
                    }
                ]
            }
        ],
        "components": []
    }
]
