[
  {
    "name": "Times",
    "isDefault": true,
    "fileNameRegular": "\/designer\/fonts\/Times-Regular.ttf",
    "fileNameBold": "\/designer\/fonts\/Times-Bold.ttf",
    "fileNameItalic": "\/designer\/fonts\/Times-Italic.ttf",
    "fileNameBoldItalic": "\/designer\/fonts\/Times-Regular.ttf"
  },
  {
    "name": "OpenSans",
    "isDefault": null,
    "fileNameRegular": "\/designer\/fonts\/OpenSans-Regular.ttf",
    "fileNameBold": "\/designer\/fonts\/OpenSans-Bold.ttf",
    "fileNameItalic": "\/designer\/fonts\/OpenSans-Italic.ttf",
    "fileNameBoldItalic": "\/designer\/fonts\/OpenSans-Regular.ttf"
  },
  {
    "name": "Helvetica",
    "isDefault": null,
    "fileNameRegular": "\/designer\/fonts\/Helvetica.ttf",
    "fileNameBold": "\/designer\/fonts\/Helvetica-Bold.ttf",
    "fileNameItalic": "\/designer\/fonts\/Helvetica-Italic.ttf",
    "fileNameBoldItalic": "\/designer\/fonts\/Helvetica-BI.ttf"
  },
  {
    "name": "ComicSans",
    "isDefault": null,
    "fileNameRegular": "\/designer\/fonts\/Comic-Sans.ttf",
    "fileNameBold": "\/designer\/fonts\/Comic-Sans-Bold.ttf",
    "fileNameItalic": "\/designer\/fonts\/Comic-Sans-Italic.ttf",
    "fileNameBoldItalic": "\/designer\/fonts\/Comic-Sans-BI.ttf"
  }
]
