{
  "foregroundImages": {
    "01_front": {
      "sofa_three_seater": "/images/item/foreground/sofa_three_seater/01_front/sofa_three_seater.png"
    },
    "02_frontleft": {
      "sofa_three_seater": "/images/item/foreground/sofa_three_seater/02_frontleft/sofa_three_seater.png"
    },
    "03_left": {
      "sofa_three_seater": "/images/item/foreground/sofa_three_seater/03_left/sofa_three_seater.png"
    }
  }
}
