{
  "foregroundImages": {
    "01_front": {
      "sofa_three_seater_child_1": "/images/item/foreground/sofa_three_seater_parent/01_front/sofa_three_seater_parent.png",
      "sofa_three_seater_child_2": "/images/item/foreground/sofa_three_seater_parent/01_front/sofa_three_seater_child_2.png",
      "sofa_three_seater_child_3": "/images/item/foreground/sofa_three_seater_parent/01_front/sofa_three_seater_child_3.png"
    },
    "02_frontleft": {
      "sofa_three_seater_child_1": "/images/item/foreground/sofa_three_seater_parent/02_frontleft/sofa_three_seater_parent.png",
      "sofa_three_seater_child_2": "/images/item/foreground/sofa_three_seater_parent/02_frontleft/sofa_three_seater_child_2.png",
      "sofa_three_seater_child_3": "/images/item/foreground/sofa_three_seater_parent/02_frontleft/sofa_three_seater_child_3.png"
    },
    "03_left": {
      "sofa_three_seater_child_1": "/images/item/foreground/sofa_three_seater_parent/03_left/sofa_three_seater_parent.png",
      "sofa_three_seater_child_2": "/images/item/foreground/sofa_three_seater_parent/03_left/sofa_three_seater_child_2.png",
      "sofa_three_seater_child_3": "/images/item/foreground/sofa_three_seater_parent/03_left/sofa_three_seater_child_3.png"
    }
  }
}
