[
  {
    "src": "/visualization_component/creator/duck_creator_3d/basemodel/base.gltf",
    "material": {
      "params": {
        "map": "/visualization_component/creator/duck_creator_3d/basemodel/base.png"
      }
    }
  },
  {
    "src": "/visualization_component/creator/duck_creator_3d/basemodel/base2.gltf",
    "material": {
      "params": {
        "color": "#FF0000",
        "map": "/visualization_component/creator/duck_creator_3d/basemodel/base2.png"
      }
    }
  },
  {
    "src": "/visualization_component/creator/duck_creator_3d/duck.gltf",
    "material": {
      "params": {
        "color": "#00FFFF",
        "alphaMap": "/visualization_component/creator/duck_creator_3d/components/duck_body_color/options/duck_green/optiontextures/alpha.png",
        "map": "/visualization_component/creator/duck_creator_3d/components/duck_body_color/options/duck_green/optiontextures/duck_green.png"
      }
    }
  },
  {
    "src": "/visualization_component/creator/duck_creator_3d/components/duck_head_color/head.gltf",
    "material": {
      "params": {
        "color": "#FF0000",
        "map": "/visualization_component/creator/duck_creator_3d/optiontextures/duck_yellow.png"
      }
    }
  }
]

