{
    "statusCode": 200,
    "headers": {
        "content-type": [
            "application\/json"
        ]
    },
    "body": {
        "metadata": {
            "totalcount": 3
        },
        "data": [
            {
                "id": 3002,
                "identifier": "front_view",
                "sequenceNumber": "1",
                "itemId": 3003,
                "designAreas": [
                    {
                        "id": 3002,
                        "identifier": "chest",
                        "isDefault": false,
                        "title": "Chest",
                        "baseShape": {
                            "type": "Plane",
                            "width": 144,
                            "height": 144,
                            "x": -179.99999999999997,
                            "y": -68.18181818181799,
                            "rotation": {
                                "x": 0,
                                "y": 0,
                                "z": 0,
                                "order": "XYZ"
                            }
                        },
                        "position": {
                            "x": 72,
                            "y": 72,
                            "width": 144,
                            "height": 144
                        },
                        "customData": null
                    },
                    {
                        "id": 3003,
                        "identifier": "sleeve",
                        "isDefault": false,
                        "title": "Sleeve",
                        "baseShape": {
                            "type": "Cylinder",
                            "width": 173,
                            "height": 124,
                            "x": 286,
                            "y": -16,
                            "rotation": {
                                "x": 0.1213,
                                "y": 0.6705,
                                "z": 0.17792256549810162,
                                "order": "XYZ"
                            },
                            "r": 64
                        },
                        "position": {
                            "x": 86,
                            "y": 62,
                            "width": 172,
                            "height": 123
                        },
                        "customData": null
                    }
                ],
                "texts": [
                    {
                        "id": "3001",
                        "language": "en_GB",
                        "title": "Front view"
                    },
                    {
                        "id": "3002",
                        "language": "de_DE",
                        "title": "Vorderansicht"
                    }
                ],
                "layerImages": null
            },
            {
                "id": 3003,
                "identifier": "side_view",
                "sequenceNumber": "2",
                "itemId": 3003,
                "designAreas": [
                    {
                        "id": 3003,
                        "identifier": "sleeve",
                        "isDefault": false,
                        "title": "Sleeve",
                        "baseShape": {
                            "type": "Cylinder",
                            "width": 101,
                            "height": 72,
                            "x": 330.0000000000003,
                            "y": 21.81818181818182,
                            "r": 128,
                            "rotation": {
                                "x": 9.02129208547617e-17,
                                "y": 0.012721785742363836,
                                "z": 0.2679774739697903,
                                "order": "XYZ"
                            },
                            "inside": false
                        },
                        "position": {
                            "x": 50,
                            "y": 36,
                            "width": 71,
                            "height": 100
                        },
                        "customData": null
                    }
                ],
                "texts": [
                    {
                        "id": "3005",
                        "language": "en_GB",
                        "title": "Side view"
                    },
                    {
                        "id": "3006",
                        "language": "de_DE",
                        "title": "Seitenansicht"
                    }
                ],
                "layerImages": null
            },
            {
                "id": 3004,
                "identifier": "back_view",
                "sequenceNumber": "3",
                "itemId": 3003,
                "designAreas": [
                    {
                        "id": 3004,
                        "identifier": "back_center",
                        "isDefault": false,
                        "title": "Back center",
                        "baseShape": {
                            "type": "Plane",
                            "width": 396,
                            "height": 495,
                            "x": -87,
                            "y": -100,
                            "rotation": {
                                "x": 0,
                                "y": 0,
                                "z": 0,
                                "order": "XYZ"
                            }
                        },
                        "position": {
                            "x": 198,
                            "y": 248,
                            "width": 395,
                            "height": 494
                        },
                        "customData": null
                    }
                ],
                "texts": [
                    {
                        "id": "3007",
                        "language": "en_GB",
                        "title": "Back view"
                    },
                    {
                        "id": "3008",
                        "language": "de_DE",
                        "title": "Rückansicht"
                    }
                ],
                "layerImages": null
            }
        ]
    }
}
