{
  "configurationCode": "defaultoptions_1",
  "emailAddress": "rhm@redhotmagma.de",
  "name": "Mr. Interest",
  "company": "Redhotmagma",
  "phoneNumber": "+49 711 520 882 60",
  "street": "Badergasse 8",
  "zip": "70372",
  "city": "Stuttgart",
  "country": "Deutschland"
}
