{
    "statusCode": 200,
    "headers": {
        "content-type": [
            "application\/json"
        ]
    },
    "body": {
        "id": 1,
        "identifier": "sheep",
        "title": null,
        "calculationTypes": [
            {
                "id": 1,
                "identifier": "gift_package",
                "itemAmountDependent": true,
                "selectableByUser": true,
                "imageDataDependent": false,
                "title": "",
                "prices": [
                    {
                        "id": 1,
                        "channel": "1",
                        "amountFrom": 1,
                        "price": "11.90000",
                        "priceNet": "10.00000"
                    },
                    {
                        "id": 2,
                        "channel": "1",
                        "amountFrom": 10,
                        "price": "5.95000",
                        "priceNet": "5.00000"
                    },
                    {
                        "id": 3,
                        "channel": "1",
                        "amountFrom": 1000,
                        "price": "1.19000",
                        "priceNet": "1.00000"
                    }
                ]
            }
        ]
    }
}