{
    "statusCode": 200,
    "headers": {
        "content-type": [
            "application\/json"
        ]
    },
    "body": {
        "metadata": {
            "totalcount": "5"
        },
        "data": [
            {
                "id": 1,
                "parent_id": null,
                "identifier": "coat",
                "sequencenumber": 1,
                "hiddenInFrontend": false,
                "hiddenInPdf": false,
                "translated_title": "coat",
                "translated_description": "",
                "texts": [
                    {
                        "id": "1",
                        "language": "en_GB",
                        "title": "coat",
                        "description": ""
                    },
                    {
                        "id": "2",
                        "language": "de_DE",
                        "title": "Fell",
                        "description": ""
                    }
                ],
                "attributes": [],
                "selectedoptions": null,
                "is_multiselect": null,
                "is_mandatory": null,
                "children": []
            },
            {
                "id": 2,
                "parent_id": null,
                "identifier": "face",
                "sequencenumber": 2,
                "hiddenInFrontend": false,
                "hiddenInPdf": false,
                "translated_title": "face",
                "translated_description": "",
                "texts": [
                    {
                        "id": "3",
                        "language": "en_GB",
                        "title": "face",
                        "description": ""
                    },
                    {
                        "id": "4",
                        "language": "de_DE",
                        "title": "Gesicht",
                        "description": ""
                    }
                ],
                "attributes": [],
                "selectedoptions": null,
                "is_multiselect": null,
                "is_mandatory": null,
                "children": []
            },
            {
                "id": 3,
                "parent_id": null,
                "identifier": "legs",
                "sequencenumber": 3,
                "hiddenInFrontend": false,
                "hiddenInPdf": false,
                "translated_title": "legs",
                "translated_description": "",
                "texts": [
                    {
                        "id": "5",
                        "language": "en_GB",
                        "title": "legs",
                        "description": ""
                    },
                    {
                        "id": "6",
                        "language": "de_DE",
                        "title": "Beine",
                        "description": ""
                    }
                ],
                "attributes": [],
                "selectedoptions": null,
                "is_multiselect": null,
                "is_mandatory": null,
                "children": []
            },
            {
                "id": 4,
                "parent_id": null,
                "identifier": "eyes",
                "sequencenumber": 4,
                "hiddenInFrontend": false,
                "hiddenInPdf": false,
                "translated_title": "eyes",
                "translated_description": "",
                "texts": [
                    {
                        "id": "7",
                        "language": "en_GB",
                        "title": "eyes",
                        "description": ""
                    },
                    {
                        "id": "8",
                        "language": "de_DE",
                        "title": "Augen",
                        "description": ""
                    }
                ],
                "attributes": [],
                "selectedoptions": null,
                "is_multiselect": null,
                "is_mandatory": null,
                "children": []
            },
            {
                "id": 5,
                "parent_id": null,
                "identifier": "ear_eyelid",
                "sequencenumber": 5,
                "hiddenInFrontend": false,
                "hiddenInPdf": false,
                "translated_title": "ear & eyelid",
                "translated_description": "",
                "texts": [
                    {
                        "id": "9",
                        "language": "en_GB",
                        "title": "ear & eyelid",
                        "description": ""
                    },
                    {
                        "id": "10",
                        "language": "de_DE",
                        "title": "Ohr & Augenlid",
                        "description": ""
                    }
                ],
                "attributes": [],
                "selectedoptions": null,
                "is_multiselect": null,
                "is_mandatory": null,
                "children": []
            }
        ]
    }
}