{
    "id": 2,
    "identifier": "rhm_de_eur",
    "currency": {
        "id": 1,
        "iso": "eur",
        "symbol": "\u20ac"
    },
    "settings": [],
    "globalDiscountPercentage": 20.00000
}
