{
  "item": {
    "id": 1
  },
  "identifier": "test_create",
  "sequenceNumber": 20,
    "texts": [
        {
            "language": "en_GB",
            "title": "Front"
        },
        {
            "language": "de_DE",
            "title": "Vorne"
        }
    ],
  "designAreas": [
    {
      "id": 1,
      "baseShape": "curved",
      "position": "left",
      "customData": {"data":"object"}
    }
  ],
  "customData": "string"
}
