{
    "id": 1,
    "item": {
        "id": 1
    },
    "identifier": "front",
    "sequenceNumber": 30,
    "texts": [],
    "designAreas": [
        {
            "id": 1,
            "baseShape": "curved",
            "position": "left",
            "customData": {
                "data": "object"
            },
            "isDefault": true
        }
    ],
    "customData": "string"
}
