{
    "statusCode": 200,
    "headers": {
        "content-type": [
            "application\/json"
        ]
    },
    "body": {
        "metadata": {
            "totalcount": "44"
        },
        "data": [
            {
                "id": 1,
                "area": "connector",
                "identifier": null
            },
            {
                "id": 2,
                "area": "assembly_points",
                "identifier": null
            },
            {
                "id": 3,
                "area": "attribute_values",
                "identifier": null
            },
            {
                "id": 4,
                "area": "attributes",
                "identifier": null
            },
            {
                "id": 5,
                "area": "channels",
                "identifier": null
            },
            {
                "id": 6,
                "area": "clients",
                "identifier": null
            },
            {
                "id": 7,
                "area": "code_snippets",
                "identifier": null
            },
            {
                "id": 8,
                "area": "color_palettes",
                "identifier": null
            },
            {
                "id": 9,
                "area": "configuration_variants",
                "identifier": null
            },
            {
                "id": 10,
                "area": "configurations",
                "identifier": null
            }
        ]
    }
}
