{
    "statusCode": 200,
    "headers": {
        "content-type": [
            "application\/json"
        ]
    },
    "body": [
        {
            "itemIdentifier": "test_item_available",
            "configurable": true
        },
        {
            "itemIdentifier": "test_item_available_creator",
            "configurable": true
        },
        {
            "itemIdentifier": "test_item_available_designer",
            "configurable": true
        },
        {
            "itemIdentifier": "test_item_unavailable",
            "configurable": false
        }
    ]
}