{
    "statusCode": 200,
    "headers": {
        "content-type": [
            "application\/json"
        ]
    },
    "body": [
        {
            "iso": "en_GB",
            "dateFormat": "m\/d\/Y",
            "dateTimeFormat": null,
            "priceDecimals": 2,
            "numberDecimals": null,
            "thousandsSeparator": ",",
            "currencySymbolPosition": "left",
            "decimalpoint": "."
        },
        {
            "iso": "de_DE",
            "dateFormat": "d.m.Y",
            "dateTimeFormat": null,
            "priceDecimals": 2,
            "numberDecimals": null,
            "thousandsSeparator": ".",
            "currencySymbolPosition": "right",
            "decimalpoint": ","
        }
    ]
}
