{
    "statusCode": 200,
    "headers": {
        "content-type": [
            "application\/json"
        ]
    },
    "body": {
        "id": 2,
        "iso": "de_DE",
        "dateFormat": "d.m.Y",
        "dateTimeFormat": null,
        "decimalpoint": ",",
        "priceDecimals": 2,
        "numberDecimals": null,
        "thousandsSeparator": ".",
        "currencySymbolPosition": "right",
        "isDefault": false
    }
}