{
  "statusCode": 200,
  "headers": {
    "content-type": [
      "application\/json"
    ]
  },
  "body": [
    {
      "identifier": "coat_nature",
      "title": "{coat_nature}",
      "abstract": "",
      "description": "",
      "attributes": [],
      "price": 12.45,
      "netPrice": 10.46,
      "priceFormatted": "\u20ac 12.45",
      "stock": null,
      "amount": null,
      "amount_is_selectable": false,
      "detailImage": "\/option\/coat_nature_fullsize.jpg",
      "thumbnail": "\/option\/coat_nature.jpg",
      "hasTextinput": false,
      "inputValidationType": null,
      "inputText": null
    },
    {
      "identifier": "coat_white",
      "title": "{coat_white}",
      "abstract": "",
      "description": "",
      "attributes": [],
      "price": 13.45,
      "netPrice": 11.3,
      "priceFormatted": "\u20ac 13.45",
      "stock": null,
      "amount": null,
      "amount_is_selectable": false,
      "detailImage": "\/option\/coat_white_fullsize.jpg",
      "thumbnail": "\/option\/coat_white.jpg",
      "hasTextinput": true,
      "inputValidationType": null,
      "inputText": null
    },
    {
      "identifier": "coat_red",
      "title": "{coat_red}",
      "abstract": "",
      "description": "",
      "attributes": [],
      "price": 14.45,
      "netPrice": 12.14,
      "priceFormatted": "\u20ac 14.45",
      "stock": null,
      "amount": null,
      "amount_is_selectable": false,
      "detailImage": "\/option\/coat_red_fullsize.jpg",
      "thumbnail": "\/option\/coat_red.jpg",
      "hasTextinput": false,
      "inputValidationType": null,
      "inputText": null
    }
  ]
}
