{
    "statusCode": 200,
    "headers": {
        "content-type": [
            "application\/json"
        ]
    },
    "body": {
        "metadata": {
            "totalcount": 2
        },
        "data": [
            "optionInputNotEmpty",
            "optionInputNumber"
        ]
    }
}