{
    "statusCode": 200,
    "headers": {
        "content-type": [
            "application\/json"
        ]
    },
    "body": {
        "metadata": {
            "totalcount": "2"
        },
        "data": [
            {
                "id": 1,
                "identifier": "shipping",
                "itemAmountDependent": true,
                "selectableByUser": false,
                "imageDataDependent": false,
                "texts": [
                    {
                        "id": 1,
                        "title": "Shipping Costs",
                        "description": "We charge \u20ac6.90 per 20.",
                        "language": "en_GB"
                    },
                    {
                        "id": 2,
                        "title": "Versandkosten",
                        "description": "Je 20 Stk werden 6,90\u20ac berechnet.",
                        "language": "de_DE"
                    }
                ],
                "prices": null,
                "bulkNameDependent": false,
                "imageDependent": "gallery_image_dependent",
                "pricePerItem": false
            },
            {
                "id": 2,
                "identifier": "setup",
                "itemAmountDependent": false,
                "selectableByUser": false,
                "imageDataDependent": false,
                "texts": [
                    {
                        "id": 3,
                        "title": "Setup",
                        "description": "This is charged only once.",
                        "language": "en_GB"
                    },
                    {
                        "id": 4,
                        "title": "Einrichtung",
                        "description": "Einmalige Berechnung.",
                        "language": "de_DE"
                    }
                ],
                "prices": [
                    {
                        "id": 1,
                        "channel": "1",
                        "price": "59.50000",
                        "priceNet": "40.00000"
                    }
                ],
                "bulkNameDependent": false,
                "imageDependent": null,
                "pricePerItem": false
            }
        ]
    }
}