{
    "identifier": "900000",
    "id": 4,
    "texts": [
        {
            "language": "en_GB",
            "title": "translated_en create"
        },
        {
            "language": "de_DE",
            "title": "translated_de create"
        }
    ],
    "colors": [
        {
            "id": 2246,
            "identifier": "black",
            "hex_value": "111111",
            "texts": [
                {
                    "id": 3,
                    "language": "de_DE",
                    "title": "schwarz"
                },
                {
                    "id": 4,
                    "language": "en_GB",
                    "title": "black"
                }
            ]
        },
        {
            "id": 2247,
            "identifier": "white",
            "hex_value": "eeeeee",
            "texts": [
                {
                    "id": 1,
                    "language": "de_DE",
                    "title": "weiß"
                },
                {
                    "id": 2,
                    "language": "en_GB",
                    "title": "white"
                }
            ]
        },
        {
            "id": 2249,
            "identifier": "300000",
            "hex_value": "ffffff",
            "texts": [
                {
                    "language": "de_DE",
                    "title": "weiß"
                },
                {
                    "language": "en_GB",
                    "title": "white"
                }
            ]
        }
    ],
    "defaultColor": {
        "id": 2248,
        "identifier": "200000",
        "hex_value": "0000ff",
        "texts": [
            {
                "language": "de_DE",
                "title": "blau"
            },
            {
                "language": "en_GB",
                "title": "blue"
            }
        ]
    }
}
