{
    "statusCode": 200,
    "headers": {
        "content-type": [
            "application\/json"
        ]
    },
    "body": {
        "version": "unknown",
        "latestReleasedVersion": "1.15.12",
        "reference": "unknown"
    }
}