{
    "statusCode": 200,
    "headers": {
        "content-type": [
            "application\/json"
        ]
    },
    "body": {
        "metadata": {
            "totalcount": "2"
        },
        "data": [
            {
                "id": "101",
                "imageUrl": "\/images\/imagegallery\/test.jpg",
                "thumbUrl": "\/images\/imagegallery\/test_t.jpg",
                "printUrl": "\/images\/imagegallery\/test_t.jpg",
                "sequenceNumber": 80,
                "translated_title": "Image1",
                "translated_description": "",
                "texts": [
                    {
                        "id": "101",
                        "title": "Image1",
                        "description": null,
                        "language": "en_GB"
                    }
                ],
                "tags": [
                    {
                        "id": "101",
                        "translated_title": "Tag1",
                        "is_multiselect": false,
                        "is_background": false,
                        "sequenceNumber": 100,
                        "translations": [
                            {
                                "id": "101",
                                "translation": "Tag1",
                                "language": "en_GB"
                            }
                        ]
                    },
                    {
                        "id": "102",
                        "translated_title": "Tag2",
                        "is_multiselect": false,
                        "is_background": false,
                        "sequenceNumber": 50,
                        "translations": [
                            {
                                "id": "102",
                                "translation": "Tag2",
                                "language": "en_GB"
                            }
                        ]
                    }
                ],
                "prices": [
                    {
                        "price": 59,
                        "priceNet": 64,
                        "channel": "1",
                        "id": 101
                    }
                ]
            },
            {
                "id": "102",
                "imageUrl": "\/images\/imagegallery\/myimage.jpg",
                "thumbUrl": "\/images\/imagegallery\/myimage_t.jpg",
                "printUrl": "\/images\/imagegallery\/test_t.jpg",
                "sequenceNumber": 40,
                "translated_title": "Image2",
                "translated_description": "",
                "texts": [
                    {
                        "id": "102",
                        "title": "Image2",
                        "description": null,
                        "language": "en_GB"
                    }
                ],
                "tags": [
                    {
                        "id": "102",
                        "translated_title": "Tag2",
                        "is_multiselect": false,
                        "is_background": false,
                        "sequenceNumber": 50,
                        "translations": [
                            {
                                "id": "102",
                                "translation": "Tag2",
                                "language": "en_GB"
                            }
                        ]
                    }
                ],
                "prices": [
                    {
                        "price": 54,
                        "priceNet": 60,
                        "channel": "1",
                        "id": 102
                    }
                ]
            }
        ]
    }
}